Division,WeightClassKg,Place,Name,Team,BodyweightKg,Best3SquatKg,Best3BenchKg,Best3DeadliftKg,TotalKg,Equipment,Event,Sex,BirthDate
Boys,51.71,1,Colton Harvell,Fairfield,45.36,113.4,52.16,124.74,290.3,Single-ply,SBD,M,
Boys,51.71,2,Carlos Gaviria,Mexia,48.99,70.31,72.57,124.74,267.62,Single-ply,SBD,M,
Boys,51.71,3,Aiden Olander,Bosqueville,51.26,86.18,58.97,95.25,240.4,Single-ply,SBD,M,
Boys,51.71,4,Ben Winkel,Cayuga,51.26,61.23,43.09,83.91,188.24,Single-ply,SBD,M,
Boys,55.79,1,Croix McBean,Fairfield,55.79,142.88,77.11,158.76,378.75,Single-ply,SBD,M,
Boys,55.79,2,Tracy Johnson,Fairfield,53.98,136.08,70.31,142.88,349.27,Single-ply,SBD,M,
Boys,55.79,3,Aaron Olander,Bosqueville,52.62,106.59,70.31,120.2,297.1,Single-ply,SBD,M,
Boys,59.87,1,Evan Basinger,Madisonville,58.97,140.61,90.72,163.29,394.63,Single-ply,SBD,M,
Boys,59.87,2,Jer'mal Holland,Madisonville,59.87,147.42,88.45,158.76,394.63,Single-ply,SBD,M,
Boys,59.87,3,Eric Rivera,Mexia,59.87,111.13,79.38,133.81,324.32,Single-ply,SBD,M,
Boys,67.13,1,Ronnie Mosley,Madisonville,64.86,185.97,86.18,188.24,460.4,Single-ply,SBD,M,
Boys,67.13,2,Adrian Avila,Mexia,66.68,170.1,74.84,174.63,419.57,Single-ply,SBD,M,
Boys,67.13,3,Josh Guardiola,Palestine Westwood,66.68,165.56,95.25,149.69,410.5,Single-ply,SBD,M,
Boys,67.13,4,Abraham Saldana,Mexia,63.05,129.27,106.59,147.42,383.29,Single-ply,SBD,M,
Boys,74.84,1,Hayden Braswell,Fairfield,74.39,249.48,142.88,229.06,621.42,Single-ply,SBD,M,
Boys,74.84,2,Luke Finnell,Bosqueville,72.57,188.24,95.25,158.76,442.25,Single-ply,SBD,M,
Boys,74.84,3,Edgar Aguilar,Buffalo,68.04,165.56,92.99,167.83,426.38,Single-ply,SBD,M,
Boys,82.1,1,Evan Chavers,Fairfield,82.1,215.46,142.88,188.24,546.58,Single-ply,SBD,M,
Boys,82.1,2,Conner Swonke,Madisonville,79.83,213.19,113.4,208.65,535.24,Single-ply,SBD,M,
Boys,82.1,3,Christian Flores,Palestine Westwood,78.02,204.12,124.74,201.85,530.7,Single-ply,SBD,M,
Boys,82.1,4,Jose Aguilera,Mexia,82.1,154.22,97.52,158.76,410.5,Single-ply,SBD,M,
Boys,89.81,1,Caden Story,Fairfield,87.54,249.48,136.08,204.12,589.67,Single-ply,SBD,M,
Boys,89.81,2,Gabe Villarreal,Palestine Westwood,88.45,226.8,129.27,233.6,589.67,Single-ply,SBD,M,
Boys,89.81,3,Alex Torres,Madisonville,88,219.99,113.4,204.12,537.51,Single-ply,SBD,M,
Boys,89.81,4,Austin Frazier,Palestine Westwood,89.81,219.99,106.59,201.85,528.44,Single-ply,SBD,M,
Boys,89.81,5,Christian Martinez,Buffalo,89.36,190.51,122.47,181.44,494.42,Single-ply,SBD,M,
Boys,89.81,6,Daquon Mills,Mexia,85.28,158.76,127.01,195.04,480.81,Single-ply,SBD,M,
Boys,89.81,7,Shiloh Peckham,Cayuga,83.46,192.78,90.72,192.78,476.27,Single-ply,SBD,M,
Boys,99.79,1,Luke Martinez,Fairfield,93.44,249.48,142.88,215.46,607.81,Single-ply,SBD,M,
Boys,99.79,2,Landon Salinas,Fairfield,99.79,235.87,140.61,185.97,562.45,Single-ply,SBD,M,
Boys,99.79,3,Samuel Marsters,Fairfield,95.25,215.46,149.69,188.24,553.38,Single-ply,SBD,M,
Boys,99.79,4,Hayden Coker,Palestine Westwood,92.08,185.97,127.01,188.24,501.22,Single-ply,SBD,M,
Boys,99.79,5,Austin Smart,Palestine Westwood,90.72,185.97,113.4,190.51,489.88,Single-ply,SBD,M,
Boys,109.77,1,Julio Roque,Fairfield,107.95,249.48,138.35,238.14,625.96,Single-ply,SBD,M,
Boys,109.77,2,Matthew Gomez,Palestine Westwood,102.06,226.8,127.01,240.4,594.21,Single-ply,SBD,M,
Boys,109.77,3,River Bonds,Fairfield,106.59,229.06,145.15,197.31,571.53,Single-ply,SBD,M,
Boys,109.77,4,Omar Lopez,Madisonville,105.69,213.19,113.4,215.46,542.04,Single-ply,SBD,M,
Boys,109.77,5,Jacen Stanford,Bosqueville,103.87,204.12,117.93,204.12,526.17,Single-ply,SBD,M,
Boys,109.77,6,Jacob Henexson,Bosqueville,102.51,140.61,92.99,163.29,396.89,Single-ply,SBD,M,
Boys,124.74,1,Brady Williams,Fairfield,117.93,272.16,158.76,195.04,625.96,Single-ply,SBD,M,
Boys,124.74,2,Noah Finnell,Bosqueville,114.31,229.06,131.54,213.19,573.79,Single-ply,SBD,M,
Boys,124.74,3,Jalen Major,Madisonville,121.11,226.8,136.08,201.85,564.72,Single-ply,SBD,M,
Boys,124.74,4,Reese Boyd,Buffalo,114.31,197.31,131.54,206.38,535.24,Single-ply,SBD,M,
Boys,124.74,5,Damion Molina,Mexia,117.93,204.12,124.74,204.12,532.97,Single-ply,SBD,M,
Boys,124.74,6,Nathanial Smith,Palestine Westwood,114.76,183.7,102.06,154.22,439.98,Single-ply,SBD,M,
Boys,124.74,7,Joel Rodriguez,Cayuga,119.75,167.83,90.72,149.69,408.23,Single-ply,SBD,M,
Boys,139.71,1,Xavier West,Mexia,127.46,226.8,117.93,210.92,555.65,Single-ply,SBD,M,
Boys,139.71,2,Josh Lockhart,Groesbeck,127.46,226.8,149.69,174.63,551.11,Single-ply,SBD,M,
Boys,139.71,DQ,Zemetress Randle,Palestine Westwood,126.55,,,,,Single-ply,SBD,M,
Boys,139.71+,1,Bosque Monico,Fairfield,144.24,285.76,158.76,215.46,659.98,Single-ply,SBD,M,
