Division,WeightClassKg,Place,Name,Team,BodyweightKg,Best3SquatKg,Best3BenchKg,Best3DeadliftKg,TotalKg,Equipment,Event,Sex,BirthDate
Girls,44.23,1,Jayla Arellano,Kyle Lehman,43.64,95.25,54.43,104.33,254.01,Single-ply,SBD,F,
Girls,44.23,2,Hannah Crowder,Kyle Lehman,44.18,106.59,40.82,104.33,251.74,Single-ply,SBD,F,
Girls,44.23,3,Jenny Navarrete,Kyle Lehman,43.64,95.25,38.56,97.52,231.33,Single-ply,SBD,F,
Girls,44.23,4,Lilanexis Gutierrez,Kyle Lehman,44.18,86.18,40.82,88.45,215.46,Single-ply,SBD,F,
Girls,44.23,5,Andrea Sandoval,Bastrop,43.64,61.23,20.41,70.31,151.95,Single-ply,SBD,F,
Girls,47.85,1,Ashley Villanueva,Kyle Lehman,47.26,138.35,79.38,145.15,362.87,Single-ply,SBD,F,
Girls,47.85,2,Jenni Venegas,Dripping Springs,46.36,129.27,61.23,127.01,317.51,Single-ply,SBD,F,
Girls,47.85,3,Madison Sanchez,Taylor,47.54,115.67,61.23,106.59,283.5,Single-ply,SBD,F,
Girls,47.85,4,Landri Martinka,Thorndale,46.99,95.25,40.82,111.13,247.21,Single-ply,SBD,F,
Girls,47.85,5,Erika Tormozov,Buda Hays,47.72,97.52,47.63,99.79,244.94,Single-ply,SBD,F,
Girls,47.85,6,Quiana Green,San Marcos,47.63,88.45,38.56,106.59,233.6,Single-ply,SBD,F,
Girls,47.85,7,Brianna Vega,Dripping Springs,47.72,90.72,45.36,97.52,233.6,Single-ply,SBD,F,
Girls,47.85,8,Ashley Ramirez #4,Bastrop,45.81,83.91,36.29,90.72,210.92,Single-ply,SBD,F,
Girls,47.85,9,María Rivera,Killeen Ellison,47.08,74.84,38.56,83.91,197.31,Single-ply,SBD,F,
Girls,51.94,1,Amber Saenz,Kyle Lehman,51.94,176.9,92.99,149.69,419.57,Single-ply,SBD,F,
Girls,51.94,2,Jasmine Rodriguez,Kyle Lehman,50.53,127.01,58.97,115.67,301.64,Single-ply,SBD,F,
Girls,51.94,3,Jena Pina,Liberty Hill,51.89,104.33,47.63,113.4,265.35,Single-ply,SBD,F,
Girls,51.94,4,Jasmine Jaimes,Kyle Lehman,50.8,102.06,47.63,111.13,260.82,Single-ply,SBD,F,
Girls,51.94,5,McKeanne Saenz,San Marcos,51.26,90.72,43.09,102.06,235.87,Single-ply,SBD,F,
Girls,51.94,6,Harmony Swanerbury,Buda Johnson,50.08,90.72,45.36,95.25,231.33,Single-ply,SBD,F,
Girls,51.94,7,Makaelyn Vivas,Thorndale,51.8,92.99,45.36,86.18,224.53,Single-ply,SBD,F,
Girls,51.94,8,Natalia Espinosa,Austin Lake Travis,49.99,83.91,29.48,97.52,210.92,Single-ply,SBD,F,
Girls,51.94,9,Ingrid Jimenez,Manor,50.44,70.31,38.56,92.99,201.85,Single-ply,SBD,F,
Girls,51.94,10,Nitzia Cardoza,Lockhart,51.17,72.57,31.75,90.72,195.04,Single-ply,SBD,F,
Girls,51.94,11,Kaitlyn Mendez,Lockhart,48.26,74.84,31.75,83.91,190.51,Single-ply,SBD,F,
Girls,51.94,DQ,Ingrid Pena,Buda Hays,51.53,104.33,49.9,,,Single-ply,SBD,F,
Girls,56.02,1,Mia Rodriguez,Taylor,54.43,149.69,65.77,138.35,353.8,Single-ply,SBD,F,
Girls,56.02,2,Kaitlin Diers,Kyle Lehman,55.97,136.08,77.11,131.54,344.73,Single-ply,SBD,F,
Girls,56.02,3,Casey Jennings,Kyle Lehman,55.97,120.2,72.57,138.35,331.12,Single-ply,SBD,F,
Girls,56.02,4,Ximena Castillo,Kyle Lehman,55.47,124.74,47.63,136.08,308.44,Single-ply,SBD,F,
Girls,56.02,5,Julianna Jongolnee,Kyle Lehman,53.43,115.67,56.7,113.4,285.76,Single-ply,SBD,F,
Girls,56.02,6,Vivianie Luna,Kyle Lehman,54.52,104.33,52.16,111.13,267.62,Single-ply,SBD,F,
Girls,56.02,7,Leliani Duddley,Killeen Ellison,53.98,99.79,43.09,113.4,256.28,Single-ply,SBD,F,
Girls,56.02,8,Alexcis Mascorro,Manor,55.16,83.91,58.97,113.4,256.28,Single-ply,SBD,F,
Girls,56.02,9,Gabriella Medellin,San Marcos,55.34,106.59,45.36,102.06,254.01,Single-ply,SBD,F,
Girls,56.02,10,Alejandra Chavira,Manor,55.61,90.72,56.7,102.06,249.48,Single-ply,SBD,F,
Girls,56.02,11,Mia Montes,Liberty Hill,54.16,95.25,40.82,102.06,238.14,Single-ply,SBD,F,
Girls,56.02,12,Leni Cruces-Rios,Dripping Springs,54.98,92.99,49.9,90.72,233.6,Single-ply,SBD,F,
Girls,56.02,13,Logan Dembowski,Bastrop,53.61,88.45,43.09,88.45,219.99,Single-ply,SBD,F,
Girls,56.02,14,Trinity Lindsley,Bastrop,56.02,72.57,40.82,77.11,190.51,Single-ply,SBD,F,
Girls,56.02,15,Daniela Gonzales,Del Valle,54.52,70.31,31.75,70.31,172.37,Single-ply,SBD,F,
Girls,56.02,16,Jayden Hunter,Manor,52.34,61.23,24.95,58.97,145.15,Single-ply,SBD,F,
Girls,60.1,1,Kayshawna Fields,Taylor,57.61,129.27,56.7,140.61,326.59,Single-ply,SBD,F,
Girls,60.1,2,Victoria Perez,Taylor,56.15,127.01,63.5,124.74,315.25,Single-ply,SBD,F,
Girls,60.1,3,Mariana Coronel,Del Valle,59.87,117.93,65.77,124.74,308.44,Single-ply,SBD,F,
Girls,60.1,4,Madison Knisley,Liberty Hill,60.06,113.4,56.7,113.4,283.5,Single-ply,SBD,F,
Girls,60.1,5,Gabby Parra,Lockhart,56.52,111.13,52.16,115.67,278.96,Single-ply,SBD,F,
Girls,60.1,6,Megan Kelnar,Buda Hays,59.33,108.86,54.43,111.13,274.42,Single-ply,SBD,F,
Girls,60.1,7,Abby Espinosa,Del Valle,59.78,99.79,47.63,113.4,260.82,Single-ply,SBD,F,
Girls,60.1,8,Ashlyn Hall,Bastrop Cedar Creek,59.87,81.65,52.16,127.01,260.82,Single-ply,SBD,F,
Girls,60.1,9,Viviana Villalobos,Kyle Lehman,59.15,95.25,45.36,117.93,258.55,Single-ply,SBD,F,
Girls,60.1,10,Madysen Shepard,Hutto,58.69,92.99,45.36,106.59,244.94,Single-ply,SBD,F,
Girls,60.1,11,Maddisen Burnett,Lockhart,59.42,92.99,49.9,102.06,244.94,Single-ply,SBD,F,
Girls,60.1,12,Harley Martin,Bastrop,59.69,106.59,34.02,102.06,242.67,Single-ply,SBD,F,
Girls,60.1,13,Ahjalei Davis,Taylor,58.88,90.72,40.82,104.33,235.87,Single-ply,SBD,F,
Girls,60.1,14,Katelyn Nunez,Thorndale,56.34,83.91,38.56,90.72,213.19,Single-ply,SBD,F,
Girls,60.1,15,McKenzie Tallas,Thorndale,56.61,68.04,43.09,92.99,204.12,Single-ply,SBD,F,
Girls,60.1,16,Jenny Medel,Del Valle,58.51,72.57,29.48,92.99,195.04,Single-ply,SBD,F,
Girls,60.1,17,Allisa Bobbitt,Austin Lake Travis,58.88,70.31,34.02,90.72,195.04,Single-ply,SBD,F,
Girls,60.1,18,Yolanda Salinas,Killeen Shoemaker,60.06,79.38,34.02,79.38,192.78,Single-ply,SBD,F,
Girls,67.36,1,Leah Lara,Kyle Lehman,66.68,176.9,81.65,163.29,421.84,Single-ply,SBD,F,
Girls,67.36,2,MaKaela Wyles,Lockhart,67.31,142.88,90.72,147.42,381.02,Single-ply,SBD,F,
Girls,67.36,3,Maggie Ryines,Taylor,63.14,131.54,72.57,131.54,335.66,Single-ply,SBD,F,
Girls,67.36,4,Miriam Venegas,Dripping Springs,62.96,129.27,54.43,136.08,319.78,Single-ply,SBD,F,
Girls,67.36,5,Dana Kennedy,Dripping Springs,67.31,124.74,63.5,129.27,317.51,Single-ply,SBD,F,
Girls,67.36,6,Whitley Boyd,Rockdale,66.04,122.47,65.77,120.2,308.44,Single-ply,SBD,F,
Girls,67.36,7,Alexis Torres,Del Valle,66.59,111.13,65.77,120.2,297.1,Single-ply,SBD,F,
Girls,67.36,8,Victoria Gutierrez #1,San Marcos,62.78,117.93,54.43,122.47,294.84,Single-ply,SBD,F,
Girls,67.36,9,Marissa Ezzo,Liberty Hill,63.87,117.93,52.16,97.52,267.62,Single-ply,SBD,F,
Girls,67.36,10,Judith Rios,Dripping Springs,66.95,117.93,40.82,108.86,267.62,Single-ply,SBD,F,
Girls,67.36,11,Gabriella Pitre,Liberty Hill,61.69,92.99,49.9,111.13,254.01,Single-ply,SBD,F,
Girls,67.36,12,Anicia Lechuga,San Marcos,64.95,90.72,43.09,106.59,240.4,Single-ply,SBD,F,
Girls,67.36,13,Jackie Lopez,Del Valle,63.05,95.25,43.09,99.79,238.14,Single-ply,SBD,F,
Girls,67.36,14,Natalia Bazan,Buda Johnson,66.77,74.84,34.02,99.79,208.65,Single-ply,SBD,F,
Girls,67.36,15,Ava Herrera,Lockhart,64.95,81.65,38.56,86.18,206.38,Single-ply,SBD,F,
Girls,67.36,16,Morgan Campuzano,Killeen Ellison,67.04,74.84,34.02,92.99,201.85,Single-ply,SBD,F,
Girls,75.07,1,Kayla Loupe,Kyle Lehman,69.22,204.12,95.25,163.29,462.66,Single-ply,SBD,F,
Girls,75.07,2,Ashia Baker,Manor,69.4,136.08,54.43,154.22,344.73,Single-ply,SBD,F,
Girls,75.07,3,Natalie Zapata,Kyle Lehman,74.84,127.01,56.7,122.47,306.17,Single-ply,SBD,F,
Girls,75.07,4,Isa Vasquez-Villarreal,Buda Hays,73.39,113.4,58.97,127.01,299.37,Single-ply,SBD,F,
Girls,75.07,5,Mia Carrizales,Taylor,73.48,117.93,63.5,117.93,299.37,Single-ply,SBD,F,
Girls,75.07,6,Arianna Prill,Kyle Lehman,73.12,117.93,56.7,120.2,294.84,Single-ply,SBD,F,
Girls,75.07,7,Ainsly Orme,Elgin,73.84,129.27,56.7,108.86,294.84,Single-ply,SBD,F,
Girls,75.07,8,Yuliana Navarro,Dripping Springs,73.12,113.4,43.09,136.08,292.57,Single-ply,SBD,F,
Girls,75.07,9,Meadow Branch,Bastrop Cedar Creek,70.94,97.52,47.63,122.47,267.62,Single-ply,SBD,F,
Girls,75.07,10,Dayla Palacios,Elgin,70.76,106.59,54.43,102.06,263.08,Single-ply,SBD,F,
Girls,75.07,11,Amber Alvarez,Lockhart,69.94,92.99,38.56,99.79,231.33,Single-ply,SBD,F,
Girls,75.07,12,Joelle Halfmann,Austin Lake Travis,75.02,90.72,34.02,97.52,222.26,Single-ply,SBD,F,
Girls,75.07,13,Makayla Martin,Killeen Shoemaker,67.86,65.77,29.48,95.25,190.51,Single-ply,SBD,F,
Girls,75.07,DQ,America Rojas,Taylor,72.94,,,,,Single-ply,SBD,F,
Girls,82.33,1,Karla Olmedo,Kyle Lehman,79.47,188.24,92.99,154.22,435.45,Single-ply,SBD,F,
Girls,82.33,2,Alexandra Arias,Taylor,79.56,165.56,70.31,158.76,394.63,Single-ply,SBD,F,
Girls,82.33,3,Izabella Vidales,Taylor,82.19,147.42,68.04,145.15,360.61,Single-ply,SBD,F,
Girls,82.33,4,Marina Ramirez,Elgin,76.93,131.54,81.65,131.54,344.73,Single-ply,SBD,F,
Girls,82.33,5,Taylor Sims,Liberty Hill,76.29,147.42,61.23,129.27,337.93,Single-ply,SBD,F,
Girls,82.33,6,Raquel Ruiz,Buda Hays,79.65,136.08,56.7,142.88,335.66,Single-ply,SBD,F,
Girls,82.33,7,Larissa Acosta,Kyle Lehman,82.19,142.88,49.9,140.61,333.39,Single-ply,SBD,F,
Girls,82.33,8,Ashley Kimey,Hutto,80.2,120.2,43.09,147.42,310.71,Single-ply,SBD,F,
Girls,82.33,9,Ezra Mendez,San Marcos,81.92,113.4,47.63,147.42,308.44,Single-ply,SBD,F,
Girls,82.33,10,Simone Swanson,Dripping Springs,80.56,115.67,68.04,113.4,297.1,Single-ply,SBD,F,
Girls,82.33,11,Lacy Jordan,Bastrop,82.28,108.86,77.11,104.33,290.3,Single-ply,SBD,F,
Girls,82.33,12,Myckaela Patterson,Elgin,79.11,104.33,54.43,122.47,281.23,Single-ply,SBD,F,
Girls,82.33,13,Olivia Saenz,Buda Johnson,80.29,104.33,56.7,108.86,269.89,Single-ply,SBD,F,
Girls,82.33,14,Danesha Parker,Killeen Shoemaker,75.39,99.79,43.09,117.93,260.82,Single-ply,SBD,F,
Girls,82.33,15,Aracelia Rivera,Killeen Ellison,75.75,99.79,43.09,108.86,251.74,Single-ply,SBD,F,
Girls,82.33,16,Jhanezhka Aguilar,Austin Lake Travis,77.29,113.4,34.02,102.06,249.48,Single-ply,SBD,F,
Girls,82.33,17,Rebbeca Rodriguez,Bastrop,78.65,83.91,38.56,90.72,213.19,Single-ply,SBD,F,
Girls,82.33,18,Jenna Gonzalez,Austin Lake Travis,76.57,83.91,29.48,79.38,192.78,Single-ply,SBD,F,
Girls,90.04,1,Yvette Gutierrez,Taylor,85.18,154.22,63.5,149.69,367.41,Single-ply,SBD,F,
Girls,90.04,2,Perla Hernandez,Liberty Hill,88.72,133.81,68.04,131.54,333.39,Single-ply,SBD,F,
Girls,90.04,3,Maria Romero,Buda Hays,82.46,127.01,65.77,108.86,301.64,Single-ply,SBD,F,
Girls,90.04,4,Joan Turntine,Killeen Shoemaker,88.9,102.06,43.09,113.4,258.55,Single-ply,SBD,F,
Girls,90.04,5,Anna Williams,Austin Lake Travis,84.28,92.99,38.56,111.13,242.67,Single-ply,SBD,F,
Girls,90.04,6,Irais Correa,Del Valle,87.91,79.38,36.29,99.79,215.46,Single-ply,SBD,F,
Girls,100.02,1,Malia Gonzales,Kyle Lehman,98.61,215.46,117.93,176.9,510.29,Single-ply,SBD,F,
Girls,100.02,2,Natalie Deary,Thorndale,98.61,127.01,61.23,136.08,324.32,Single-ply,SBD,F,
Girls,100.02,3,Cate Julius,Kyle Lehman,97.98,138.35,61.23,115.67,315.25,Single-ply,SBD,F,
Girls,100.02,4,Frida Lazcano,Kyle Lehman,96.89,117.93,58.97,122.47,299.37,Single-ply,SBD,F,
Girls,100.02,5,Grace Sagebiel,Bastrop,99.06,113.4,63.5,122.47,299.37,Single-ply,SBD,F,
Girls,100.02,6,Serena Lindsey,Killeen Ellison,98.7,108.86,43.09,129.27,281.23,Single-ply,SBD,F,
Girls,100.02,7,Riana Reyes,Lockhart,98.16,102.06,56.7,111.13,269.89,Single-ply,SBD,F,
Girls,100.02,8,Aubrey Jackson,Buda Johnson,91.17,95.25,49.9,106.59,251.74,Single-ply,SBD,F,
Girls,117.71,1,Lagi Marina AhSang,Killeen Ellison,115.76,204.12,90.72,206.38,501.22,Single-ply,SBD,F,
Girls,117.71,2,Marisol Zuniga,Kyle Lehman,102.97,179.17,77.11,145.15,401.43,Single-ply,SBD,F,
Girls,117.71,3,Analise Frias,Taylor,115.94,158.76,70.31,149.69,378.75,Single-ply,SBD,F,
Girls,117.71,4,Kayla Garmon,Killeen Shoemaker,111.86,136.08,61.23,133.81,331.12,Single-ply,SBD,F,
Girls,117.71,5,Jisela Trevino,Del Valle,102.6,106.59,52.16,147.42,306.17,Single-ply,SBD,F,
Girls,117.71,6,Heavenly Turner,Taylor,107.86,113.4,61.23,131.54,306.17,Single-ply,SBD,F,
Girls,117.71,7,Asia Adams,Killeen Ellison,114.4,108.86,61.23,136.08,306.17,Single-ply,SBD,F,
Girls,117.71,8,Dimond Grant,Killeen Shoemaker,102.97,106.59,52.16,136.08,294.84,Single-ply,SBD,F,
Girls,117.71,9,Elvia Aguillon,Lockhart,107.95,115.67,65.77,108.86,290.3,Single-ply,SBD,F,
Girls,117.71,10,Vickie Sauceda,Thorndale,102.87,113.4,49.9,102.06,265.35,Single-ply,SBD,F,
Girls,117.71,11,Ezra Szot,Austin Lake Travis,108.23,61.23,43.09,70.31,174.63,Single-ply,SBD,F,
Girls,117.71+,1,Olivia Valdez,Kyle Lehman,133.36,167.83,86.18,140.61,394.63,Single-ply,SBD,F,
Girls,117.71+,2,Adecela Martinez,Lockhart,124.28,156.49,79.38,133.81,369.68,Single-ply,SBD,F,
Girls,117.71+,3,Camryn Martinez,Lockhart,120.11,149.69,74.84,133.81,358.34,Single-ply,SBD,F,
Girls,117.71+,4,Kayla Suaste-Gutierrez,Del Valle,122.47,138.35,74.84,138.35,351.53,Single-ply,SBD,F,
Girls,117.71+,5,Jakoyah Bodie,Manor,117.93,129.27,56.7,115.67,301.64,Single-ply,SBD,F,
Girls,117.71+,6,Merissa Marley,Lockhart,125.46,83.91,36.29,111.13,231.33,Single-ply,SBD,F,
Girls,,NS,Rashea Haggerd,Killeen Ellison,,,,,,Single-ply,SBD,F,
Girls,,NS,Anissa Burnham,Buda Hays,,,,,,Single-ply,SBD,F,
Girls,,NS,Gabi Jensen,Buda Hays,,,,,,Single-ply,SBD,F,
Girls,,NS,Averi Allen,Bastrop,,,,,,Single-ply,SBD,F,
Girls,,NS,Chloe Thomas #1,Austin Lake Travis,,,,,,Single-ply,SBD,F,
Girls,,NS,Isabel Martinez #2,Bastrop Cedar Creek,,,,,,Single-ply,SBD,F,
Girls,,NS,Emma Spears,Bastrop Cedar Creek,,,,,,Single-ply,SBD,F,
Girls,,NS,Dominique Salazar,Bastrop,,,,,,Single-ply,SBD,F,
Girls,,NS,Kassy Sanchez,Bastrop,,,,,,Single-ply,SBD,F,
Girls,,NS,Taylor Dunn,Bastrop,,,,,,Single-ply,SBD,F,
Girls,,NS,Alexas Gurrusquieta,Austin Lake Travis,,,,,,Single-ply,SBD,F,
Girls,,NS,Viviana Cardona,Del Valle,,,,,,Single-ply,SBD,F,
Girls,,NS,Breasia Hunter,Del Valle,,,,,,Single-ply,SBD,F,
Girls,,NS,Ariel Ramirez,Del Valle,,,,,,Single-ply,SBD,F,
Girls,,NS,Marcie Morales,Elgin,,,,,,Single-ply,SBD,F,
Girls,,NS,Aranza Zuniga-Hernandez,Elgin,,,,,,Single-ply,SBD,F,
Girls,,NS,Kerrington Holiday,Elgin,,,,,,Single-ply,SBD,F,
Girls,,NS,Xena Schlee,Thorndale,,,,,,Single-ply,SBD,F,
Girls,,NS,Emma Paxton,Thorndale,,,,,,Single-ply,SBD,F,
Girls,,NS,Amelia Adams,Liberty Hill,,,,,,Single-ply,SBD,F,
Girls,,NS,Katy Gibson,Liberty Hill,,,,,,Single-ply,SBD,F,
Girls,,NS,Breeley Bodine,Liberty Hill,,,,,,Single-ply,SBD,F,
Girls,,NS,Alyssa Martinez,Kyle Lehman,,,,,,Single-ply,SBD,F,
Girls,,NS,Angelica Portillo,Manor,,,,,,Single-ply,SBD,F,
Girls,,NS,Maria Martinez,Manor,,,,,,Single-ply,SBD,F,
Girls,,NS,Adela DeLeon,Manor,,,,,,Single-ply,SBD,F,
Girls,,NS,Juliet Calderon,San Marcos,,,,,,Single-ply,SBD,F,
