Division,WeightClassKg,Place,Name,Team,BodyweightKg,Best3SquatKg,Best3BenchKg,Best3DeadliftKg,TotalKg,Equipment,Event,Sex
Boys,51.71,1,Jeremiah Ramirez,Levelland,48.99,136.08,74.84,163.29,374.21,Single-ply,SBD,M
Boys,51.71,2,Ignacio Romero,Plainview,50.26,142.88,74.84,154.22,371.95,Single-ply,SBD,M
Boys,55.79,3,Evan Paez,Muleshoe,51.89,117.93,72.57,149.69,340.19,Single-ply,SBD,M
Boys,51.71,4,Mario Hernandez,Friona,51.17,117.93,61.23,113.4,292.57,Single-ply,SBD,M
Boys,51.71,5,Ervey Alvarado,Post,51.71,108.86,52.16,106.59,267.62,Single-ply,SBD,M
Boys,51.71,6,Keyvan Constantino,Whiteface,49.9,81.65,54.43,115.67,251.74,Single-ply,SBD,M
Boys,51.71,DQ,Joshua Chavarria,Floydada,51.62,97.52,,,,Single-ply,SBD,M
Boys,55.79,1,Raymon Aranda,Seagraves,55.7,167.83,102.06,185.97,455.86,Single-ply,SBD,M
Boys,59.87,2,Elijah Zambrano,Plainview,56.02,154.22,79.38,154.22,387.82,Single-ply,SBD,M
Boys,55.79,3,Arturo Rodriguez,Meadow,55.34,147.42,83.91,151.95,383.29,Single-ply,SBD,M
Boys,55.79,4,Efren Miranda,Levelland,55.52,136.08,68.04,147.42,351.53,Single-ply,SBD,M
Boys,55.79,5,Derek Adame,Plainview,55.52,124.74,79.38,133.81,337.93,Single-ply,SBD,M
Boys,55.79,6,Manuel Reyna,Anton,55.07,104.33,52.16,122.47,278.96,Single-ply,SBD,M
Boys,55.79,7,Julian Murrillo,Snyder,54.61,95.25,61.23,120.2,276.69,Single-ply,SBD,M
Boys,55.79,8,Hayden McCalib,Wolfforth Frenship,55.79,106.59,47.63,120.2,274.42,Single-ply,SBD,M
Boys,55.79,9,Jaime Mendoza,Whiteface,55.7,99.79,52.16,104.33,256.28,Single-ply,SBD,M
Boys,67.13,1,Anthony Washington,Plainview,60.1,167.83,95.25,190.51,453.59,Single-ply,SBD,M
Boys,67.13,2,Zachary Salazar,Lamesa,60.06,149.69,95.25,167.83,412.77,Single-ply,SBD,M
Boys,59.87,3,Mark Marquez,Dimmitt,59.24,142.88,90.72,158.76,392.36,Single-ply,SBD,M
Boys,59.87,4,Adrian Perez,Meadow,59.15,138.35,79.38,163.29,381.02,Single-ply,SBD,M
Boys,59.87,5,Emilio Miranda,Levelland,58.97,147.42,61.23,163.29,371.95,Single-ply,SBD,M
Boys,59.87,6,Jonathan Hinojosa #2,Hale Center,57.15,136.08,83.91,149.69,369.68,Single-ply,SBD,M
Boys,59.87,7,Adrian Velasquez,Wolfforth Frenship,59.15,117.93,79.38,145.15,342.46,Single-ply,SBD,M
Boys,59.87,8,Luke Krueger,Snyder,56.15,122.47,61.23,149.69,333.39,Single-ply,SBD,M
Boys,67.13,9,Alfonzo Mendoza,Floydada,60.1,120.2,70.31,142.88,333.39,Single-ply,SBD,M
Boys,59.87,10,Cameron Arellano,Wolfforth Frenship,59.69,106.59,65.77,133.81,306.17,Single-ply,SBD,M
Boys,67.13,11,Rafael Castillo,Whiteface,60.1,104.33,54.43,115.67,274.42,Single-ply,SBD,M
Boys,59.87,12,Fidel Trinidad,Post,59.33,99.79,52.16,115.67,267.62,Single-ply,SBD,M
Boys,74.84,1,Eli Rodriguez,Seagraves,67.22,217.72,106.59,213.19,537.51,Single-ply,SBD,M
Boys,67.13,2,Zane Ponder,Plainview,65.68,192.78,99.79,181.44,474,Single-ply,SBD,M
Boys,74.84,3,James Vasquez,Lubbock Coronado,67.31,197.31,95.25,181.44,474,Single-ply,SBD,M
Boys,74.84,4,Peyton Ledbetter,Farwell,67.36,167.83,104.33,183.7,455.86,Single-ply,SBD,M
Boys,67.13,5,Abel Burciago,Denver City,63.87,149.69,120.2,163.29,433.18,Single-ply,SBD,M
Boys,67.13,6,Michael DeLeon,Springlake Earth,64.86,170.1,90.72,161.03,421.84,Single-ply,SBD,M
Boys,67.13,7,Trey Hood,Lubbock Coronado,66.04,151.95,86.18,181.44,419.57,Single-ply,SBD,M
Boys,67.13,8,Juan Macias-Martinez,Friona,66.95,154.22,88.45,174.63,417.3,Single-ply,SBD,M
Boys,67.13,9,Ruben Luna,Midland Lee,65.5,154.22,102.06,149.69,405.97,Single-ply,SBD,M
Boys,67.13,10,Christian Bejerano,Lockney,63.23,142.88,88.45,165.56,396.89,Single-ply,SBD,M
Boys,67.13,11,Jovan Griffin,Lubbock Coronado,64.32,149.69,74.84,163.29,387.82,Single-ply,SBD,M
Boys,67.13,12,Estevan Gonzales,Dimmitt,67.04,124.74,70.31,183.7,378.75,Single-ply,SBD,M
Boys,67.13,13,Tajh Johnson,Midland Lee,67.13,124.74,86.18,151.95,362.87,Single-ply,SBD,M
Boys,67.13,14,Nathan Longoria,Springlake Earth,63.5,124.74,92.99,140.61,358.34,Single-ply,SBD,M
Boys,67.13,15,Josh Toscano,Lamesa,66.95,124.74,90.72,142.88,358.34,Single-ply,SBD,M
Boys,67.13,16,Miguel Vasquez,Farwell,61.69,131.54,81.65,136.08,349.27,Single-ply,SBD,M
Boys,67.13,17,Angel Rodríguez #6,Meadow,62.96,124.74,74.84,149.69,349.27,Single-ply,SBD,M
Boys,67.13,18,Chris Chavarria,Floydada,65.5,117.93,74.84,151.95,344.73,Single-ply,SBD,M
Boys,67.13,19,Ethan Pendergrass,Anton,61.05,127.01,63.5,145.15,335.66,Single-ply,SBD,M
Boys,74.84,20,Ivan Valverde,Denver City,67.31,120.2,79.38,136.08,335.66,Single-ply,SBD,M
Boys,67.13,21,Isaac Sanchez,Seagraves,65.86,117.93,70.31,142.88,331.12,Single-ply,SBD,M
Boys,67.13,22,Ethan Chavez,Seagraves,65.23,115.67,68.04,142.88,326.59,Single-ply,SBD,M
Boys,67.13,23,Donald Gibbens,Floydada,64.23,113.4,83.91,120.2,317.51,Single-ply,SBD,M
Boys,67.13,24,Chris Davis,Meadow,64.95,111.13,70.31,136.08,317.51,Single-ply,SBD,M
Boys,67.13,25,Michael Flores #2,Lamesa,65.32,120.2,63.5,133.81,317.51,Single-ply,SBD,M
Boys,67.13,26,Kyle Branson,Lamesa,64.86,108.86,68.04,136.08,312.98,Single-ply,SBD,M
Boys,67.13,27,Abraham Navarro,Dimmitt,63.41,72.57,45.36,81.65,199.58,Single-ply,SBD,M
Boys,74.84,DQ,Brendan Garza,Snyder,67.36,158.76,,,,Single-ply,SBD,M
Boys,74.84,1,Elliot Hanna,Levelland,68.76,217.72,127.01,238.14,582.87,Single-ply,SBD,M
Boys,82.1,2,Tate Richards,Springlake Earth,75.07,204.12,149.69,217.72,571.53,Single-ply,SBD,M
Boys,74.84,3,Paul Perez #3,Levelland,74.75,197.31,117.93,199.58,514.83,Single-ply,SBD,M
Boys,74.84,4,Fabian Honesto,Whiteface,74.48,190.51,102.06,195.04,487.61,Single-ply,SBD,M
Boys,74.84,5,Esteban Zuniga,Lubbock Coronado,74.21,142.88,95.25,174.63,412.77,Single-ply,SBD,M
Boys,74.84,6,Alvaro Gardea,Friona,74.39,170.1,83.91,154.22,408.23,Single-ply,SBD,M
Boys,74.84,7,Aldo Ortega,Midland Lee,73.12,120.2,117.93,167.83,405.97,Single-ply,SBD,M
Boys,74.84,8,Jayden Harvey,Hale Center,69.76,149.69,88.45,154.22,392.36,Single-ply,SBD,M
Boys,74.84,9,Dillon Hibbitts,Seagraves,71.58,142.88,86.18,163.29,392.36,Single-ply,SBD,M
Boys,74.84,10,Quince Workman,Wolfforth Frenship,72.21,115.67,86.18,181.44,383.29,Single-ply,SBD,M
Boys,74.84,11,Julio Maldanado,Springlake Earth,72.48,129.27,81.65,172.37,383.29,Single-ply,SBD,M
Boys,74.84,12,Ashton Akbar,Midland Lee,73.84,142.88,70.31,167.83,381.02,Single-ply,SBD,M
Boys,74.84,13,Jerry Simental,Seagraves,74.12,131.54,81.65,154.22,367.41,Single-ply,SBD,M
Boys,74.84,14,Damar Sermano,Friona,73.03,136.08,65.77,154.22,356.07,Single-ply,SBD,M
Boys,74.84,15,Lupe Gonzales,Dimmitt,73.84,86.18,86.18,136.08,308.44,Single-ply,SBD,M
Boys,74.84,16,Hunter Graves,Post,68.22,122.47,61.23,122.47,306.17,Single-ply,SBD,M
Boys,74.84,DQ,Lance Lucero,Hale Center,72.76,,,,,Single-ply,SBD,M
Boys,82.1,1,Steven Vallejo,Plainview,77.84,197.31,99.79,233.6,530.7,Single-ply,SBD,M
Boys,82.1,2,Draven Martinez,Lamesa,80.38,185.97,104.33,206.38,496.68,Single-ply,SBD,M
Boys,89.81,3,Jake Martinez,Hale Center,82.33,174.63,108.86,199.58,483.08,Single-ply,SBD,M
Boys,82.1,4,Tyler Hastings,Levelland,75.3,176.9,104.33,188.24,469.47,Single-ply,SBD,M
Boys,82.1,5,Fernando Vazquez,Denver City,77.93,192.78,102.06,170.1,464.93,Single-ply,SBD,M
Boys,82.1,6,Carlos Hinojosa,Lamesa,80.56,172.37,102.06,188.24,462.66,Single-ply,SBD,M
Boys,82.1,7,Joel Cigarroa,Friona,81.74,183.7,95.25,172.37,451.32,Single-ply,SBD,M
Boys,82.1,8,James Hampton,Wolfforth Frenship,76.2,158.76,95.25,192.78,446.79,Single-ply,SBD,M
Boys,82.1,9,Cesar Dominguez,Denver City,79.65,161.03,104.33,172.37,437.72,Single-ply,SBD,M
Boys,82.1,10,Brett Marmelejo,Shallowater,81.47,161.03,99.79,174.63,435.45,Single-ply,SBD,M
Boys,89.81,11,Austin McClure,Midland Lee,82.33,147.42,102.06,181.44,430.91,Single-ply,SBD,M
Boys,82.1,12,Andy Valencia,Hale Center,77.56,149.69,86.18,183.7,419.57,Single-ply,SBD,M
Boys,82.1,13,Colton Brown,Wolfforth Frenship,79.11,147.42,86.18,183.7,417.3,Single-ply,SBD,M
Boys,82.1,14,Omar Soto,Farwell,82.1,131.54,95.25,176.9,403.7,Single-ply,SBD,M
Boys,82.1,15,Eyrik Ellison,Anton,81.1,158.76,74.84,167.83,401.43,Single-ply,SBD,M
Boys,82.1,16,Caleb McDaniel,Wolfforth Frenship,80.2,138.35,86.18,167.83,392.36,Single-ply,SBD,M
Boys,82.1,17,Adam Delgado,Wolfforth Frenship,81.74,136.08,90.72,165.56,392.36,Single-ply,SBD,M
Boys,82.1,18,Sean Hernandez,Anton,80.92,149.69,81.65,149.69,381.02,Single-ply,SBD,M
Boys,82.1,19,Cameron McQueen,Meadow,78.56,129.27,95.25,147.42,371.95,Single-ply,SBD,M
Boys,82.1,20,Kevin Fehr,Wolfforth Frenship,79.65,120.2,86.18,161.03,367.41,Single-ply,SBD,M
Boys,82.1,21,Blake Russell,Shallowater,77.66,131.54,86.18,138.35,356.07,Single-ply,SBD,M
Boys,82.1,22,Thad Basquez,Post,80.2,113.4,68.04,117.93,299.37,Single-ply,SBD,M
Boys,82.1,DQ,Michael Guerrero,Lockney,81.47,185.97,,,,Single-ply,SBD,M
Boys,89.81,1,Domingo Saucedo,Plainview,88.36,249.48,167.83,238.14,655.44,Single-ply,SBD,M
Boys,89.81,2,Eduardo Hernandez,Denver City,85.55,219.99,142.88,190.51,553.38,Single-ply,SBD,M
Boys,89.81,3,Dalton Gray,Anton,87.82,213.19,106.59,204.12,523.9,Single-ply,SBD,M
Boys,89.81,4,Josh Acevedo,Wolfforth Frenship,88.99,201.85,129.27,190.51,521.63,Single-ply,SBD,M
Boys,89.81,5,Juan Samarron,Friona,88.81,192.78,122.47,192.78,508.02,Single-ply,SBD,M
Boys,89.81,6,Zack Salazar,Levelland,84.37,163.29,117.93,215.46,496.68,Single-ply,SBD,M
Boys,89.81,7,Larry Iglesias,Lamesa,88.99,188.24,117.93,188.24,494.42,Single-ply,SBD,M
Boys,99.79,8,Robin Bolla,Wolfforth Frenship,89.9,181.44,104.33,183.7,469.47,Single-ply,SBD,M
Boys,99.79,9,Asher Robinson,Wolfforth Frenship,90.04,181.44,104.33,183.7,469.47,Single-ply,SBD,M
Boys,89.81,10,Santos Flores,Lubbock Coronado,84.1,181.44,97.52,174.63,453.59,Single-ply,SBD,M
Boys,89.81,11,Leo Montoya,Whiteface,89.45,163.29,104.33,183.7,451.32,Single-ply,SBD,M
Boys,89.81,12,Justice Chavez,Shallowater,84.64,161.03,99.79,158.76,419.57,Single-ply,SBD,M
Boys,89.81,13,Brandon Steele,Lubbock Coronado,86.82,136.08,106.59,163.29,405.97,Single-ply,SBD,M
Boys,89.81,14,Jacob Bick,Midland Lee,87,156.49,86.18,149.69,392.36,Single-ply,SBD,M
Boys,89.81,15,Austin Young,Shallowater,82.92,154.22,81.65,151.95,387.82,Single-ply,SBD,M
Boys,89.81,16,Colton Youngblood,Lubbock Coronado,84.82,145.15,83.91,136.08,365.14,Single-ply,SBD,M
Boys,89.81,17,Issac Summerlin,Friona,88.63,147.42,70.31,147.42,365.14,Single-ply,SBD,M
Boys,89.81,18,Tano Castillo,Whiteface,89.54,136.08,77.11,142.88,356.07,Single-ply,SBD,M
Boys,89.81,19,Luis Castro,Hale Center,83.01,127.01,77.11,149.69,353.8,Single-ply,SBD,M
Boys,89.81,20,Nathan Garcia,Denver City,84.28,129.27,79.38,142.88,351.53,Single-ply,SBD,M
Boys,89.81,21,Stevan Martinez,Hale Center,84.55,113.4,65.77,142.88,322.05,Single-ply,SBD,M
Boys,89.81,22,Brady Fabila,Meadow,88.99,120.2,72.57,124.74,317.51,Single-ply,SBD,M
Boys,89.81,DQ,Meshach Mendoza,Levelland,89.54,183.7,,,,Single-ply,SBD,M
Boys,99.79,1,Aaron Chavarria,Floydada,99.06,272.16,149.69,249.48,671.32,Single-ply,SBD,M
Boys,99.79,2,Crystin Baston,Plainview,99.79,249.48,151.95,260.82,662.24,Single-ply,SBD,M
Boys,99.79,3,Paul Ochoa,Levelland,96.43,256.28,170.1,213.19,639.57,Single-ply,SBD,M
Boys,109.77,4,Paul Mata,Snyder,100.02,204.12,122.47,192.78,519.36,Single-ply,SBD,M
Boys,99.79,5,Christian Rodriguez,Wolfforth Frenship,98.61,183.7,106.59,215.46,505.76,Single-ply,SBD,M
Boys,99.79,6,Eric Vela,Dimmitt,99.7,185.97,136.08,183.7,505.76,Single-ply,SBD,M
Boys,99.79,7,Bolton Huerta,Wolfforth Frenship,96.25,183.7,117.93,197.31,498.95,Single-ply,SBD,M
Boys,99.79,8,Tristan Hernandez,Dimmitt,99.43,185.97,111.13,197.31,494.42,Single-ply,SBD,M
Boys,99.79,9,Gage Holmes,Wolfforth Frenship,99.16,181.44,88.45,201.85,471.74,Single-ply,SBD,M
Boys,99.79,10,Andrew King,Lubbock Coronado,92.62,172.37,102.06,188.24,462.66,Single-ply,SBD,M
Boys,109.77,11,Alexis Gonzalez #1,Denver City,100.02,151.95,111.13,192.78,455.86,Single-ply,SBD,M
Boys,99.79,12,Jessie Villarreal,Lamesa,93.8,167.83,113.4,172.37,453.59,Single-ply,SBD,M
Boys,99.79,13,Larry Galvan,Shallowater,93.98,176.9,92.99,181.44,451.32,Single-ply,SBD,M
Boys,99.79,14,Jason Torres,Levelland,97.25,142.88,102.06,172.37,417.3,Single-ply,SBD,M
Boys,99.79,15,Gage Morgan,Wolfforth Frenship,91.63,142.88,83.91,179.17,405.97,Single-ply,SBD,M
Boys,109.77,16,Jonathan Villavicencio,Midland Lee,99.88,156.49,83.91,165.56,405.97,Single-ply,SBD,M
Boys,99.79,17,Iniel Bustos,Denver City,92.35,147.42,99.79,147.42,394.63,Single-ply,SBD,M
Boys,99.79,18,Jesse Lopez,Hale Center,93.53,154.22,97.52,142.88,394.63,Single-ply,SBD,M
Boys,99.79,19,Steven Solis,Lamesa,96.98,129.27,90.72,163.29,383.29,Single-ply,SBD,M
Boys,99.79,DQ,Cristian Gutierrez,Denver City,96.16,,,,,Single-ply,SBD,M
Boys,99.79,DQ,Valente Perez,Post,92.35,,,,,Single-ply,SBD,M
Boys,109.77,1,Moises Garcia,Plainview,109.04,281.23,154.22,260.82,696.26,Single-ply,SBD,M
Boys,109.77,2,Roy Abonanu,Plainview,103.78,244.94,142.88,238.14,625.96,Single-ply,SBD,M
Boys,109.77,3,Gavin Flores,Dimmitt,108.86,231.33,142.88,219.99,594.21,Single-ply,SBD,M
Boys,109.77,4,Lj Rodriguez,Dimmitt,105.51,217.72,131.54,226.8,576.06,Single-ply,SBD,M
Boys,109.77,5,Alex King,Levelland,104.69,185.97,136.08,226.8,548.85,Single-ply,SBD,M
Boys,124.74,6,Scott Martin,Dimmitt,110,217.72,108.86,215.46,542.04,Single-ply,SBD,M
Boys,109.77,7,Jacob Piel,Wolfforth Frenship,103.51,170.1,102.06,215.46,487.61,Single-ply,SBD,M
Boys,109.77,8,Matthew Nix,Snyder,104.78,192.78,95.25,192.78,480.81,Single-ply,SBD,M
Boys,109.77,9,Moses Rodriguez,Lamesa,102.06,179.17,122.47,174.63,476.27,Single-ply,SBD,M
Boys,109.77,10,Felipe Diaz,Midland Lee,106.5,181.44,95.25,190.51,467.2,Single-ply,SBD,M
Boys,109.77,11,Jesus Benitez,Lamesa,107.86,165.56,104.33,165.56,435.45,Single-ply,SBD,M
Boys,109.77,12,Alberto Hinojosa,Lamesa,108.41,174.63,83.91,163.29,421.84,Single-ply,SBD,M
Boys,109.77,13,Miguel Davila,Friona,105.96,129.27,90.72,129.27,349.27,Single-ply,SBD,M
Boys,124.74,1,Erik Mendez,Plainview,124.1,308.44,174.63,272.16,755.23,Single-ply,SBD,M
Boys,124.74+,2,Chris Simmons,Levelland,124.83,226.8,172.37,233.6,632.76,Single-ply,SBD,M
Boys,124.74,3,Brenon Brunson,Snyder,118.39,256.28,147.42,217.72,621.42,Single-ply,SBD,M
Boys,124.74,4,David Rodriguez,Muleshoe,116.39,249.48,142.88,208.65,601.01,Single-ply,SBD,M
Boys,124.74,5,Matt Cardenas,Wolfforth Frenship,110.4,231.33,136.08,210.92,578.33,Single-ply,SBD,M
Boys,124.74+,6,Marcus Sandoval,Springlake Earth,124.96,226.8,158.76,190.51,576.06,Single-ply,SBD,M
Boys,124.74,7,Israel Rosalez,Seagraves,116.3,215.46,151.95,188.24,555.65,Single-ply,SBD,M
Boys,124.74,8,Kellon Smith,Lubbock Coronado,116.94,204.12,124.74,197.31,526.17,Single-ply,SBD,M
Boys,124.74,9,Lucas Flores,Wolfforth Frenship,112.4,201.85,104.33,215.46,521.63,Single-ply,SBD,M
Boys,124.74,10,Arturo Ortega,Denver City,121.56,124.74,138.35,226.8,489.88,Single-ply,SBD,M
Boys,124.74,11,Chris Barron,Lamesa,114.76,176.9,124.74,183.7,485.34,Single-ply,SBD,M
Boys,124.74,12,Keith Kalbas,Farwell,117.93,167.83,124.74,170.1,462.66,Single-ply,SBD,M
Boys,124.74,13,Brock Murry,Midland Lee,113.31,165.56,102.06,167.83,435.45,Single-ply,SBD,M
Boys,124.74,14,Malachi Hernandez,Lamesa,116.21,156.49,77.11,142.88,376.48,Single-ply,SBD,M
Boys,124.74,15,Guillermo Hernandez,Midland Lee,117.75,138.35,90.72,147.42,376.48,Single-ply,SBD,M
Boys,124.74,DQ,Zane Sorrells,Snyder,110.95,217.72,108.86,,,Single-ply,SBD,M
Boys,124.74+,1,Dominick Puente,Levelland,151.5,258.55,131.54,217.72,607.81,Single-ply,SBD,M
Boys,124.74+,2,Brandon Rowand,Levelland,156.49,226.8,151.95,226.8,605.55,Single-ply,SBD,M
Boys,124.74+,3,Santos Jackson,Dimmitt,147.6,231.33,129.27,226.8,587.4,Single-ply,SBD,M
Boys,124.74+,4,Vincent Mendoza,Wolfforth Frenship,126.55,254.01,106.59,210.92,571.53,Single-ply,SBD,M
Boys,124.74+,5,Alexander Dimba,Wolfforth Frenship,204.12,192.78,124.74,183.7,501.22,Single-ply,SBD,M
Boys,124.74+,6,Jesse Hernandez,Lamesa,133.81,133.81,122.47,151.95,408.23,Single-ply,SBD,M
Boys,124.74+,7,Justin Perez,Farwell,125.83,136.08,90.72,138.35,365.14,Single-ply,SBD,M
Boys,124.74+,8,Davian Villagrana,Lamesa,132,124.74,70.31,140.61,335.66,Single-ply,SBD,M
Boys,124.74+,DQ,Trent Cottrell,Snyder,132.9,204.12,124.74,,,Single-ply,SBD,M
Boys,124.74+,DQ,Fransicso Esparza,Snyder,138.35,,,,,Single-ply,SBD,M
