Division,WeightClassKg,Place,Name,Team,BodyweightKg,Best3SquatKg,Best3BenchKg,Best3DeadliftKg,TotalKg,Equipment,Event,Sex,BirthDate
Boys,51.71,1,Ethan Folsom,Forney,50.08,81.65,68.04,81.65,231.33,Single-ply,SBD,M,
Boys,51.71,2,Trey Whitehead,Cedar Hill,48.17,74.84,40.82,95.25,210.92,Single-ply,SBD,M,
Boys,55.79,1,Chris Davis,Coppell,54.07,88.45,52.16,111.13,251.74,Single-ply,SBD,M,
Boys,59.87,1,Riggs Montgomery,Coppell,59.33,117.93,79.38,124.74,322.05,Single-ply,SBD,M,
Boys,67.13,1,Alan Santana,Little Elm,65.95,183.7,111.13,188.24,483.08,Single-ply,SBD,M,
Boys,67.13,2,Wyatt Beatty,Coppell,66.22,127.01,92.99,145.15,365.14,Single-ply,SBD,M,
Boys,67.13,3,Bhaskar Pariti,Coppell,62.14,70.31,47.63,92.99,210.92,Single-ply,SBD,M,
Boys,67.13,DQ,Kymeion Turner,Cedar Hill,65.68,,,,,Single-ply,SBD,M,
Boys,74.84,1,Malkam Wallace,Coppell,74.75,156.49,97.52,199.58,453.59,Single-ply,SBD,M,
Boys,82.1,1,Daniel Wenner,Forney,80.65,183.7,131.54,192.78,508.02,Single-ply,SBD,M,
Boys,82.1,2,Kylon Ashton,Cedar Hill,76.75,197.31,104.33,183.7,485.34,Single-ply,SBD,M,
Boys,82.1,3,Stephen Thrasher,Forney,81.19,183.7,115.67,183.7,483.08,Single-ply,SBD,M,
Boys,82.1,4,Julian Fitzgerald,Coppell,75.75,142.88,102.06,167.83,412.77,Single-ply,SBD,M,
Boys,89.81,1,Connor Zenici,Coppell,87.18,226.8,136.08,247.21,610.08,Single-ply,SBD,M,
Boys,89.81,2,Tanner Howland,Forney,87.91,201.85,136.08,204.12,542.04,Single-ply,SBD,M,
Boys,99.79,1,Ike Odimegwu,Coppell,91.99,210.92,122.47,233.6,566.99,Single-ply,SBD,M,
Boys,99.79,2,Gabe Warren,Coppell,93.08,185.97,113.4,188.24,487.61,Single-ply,SBD,M,
Boys,109.77,1,Micah Shepherd,Mount Pleasant,109.77,249.48,183.7,229.06,662.24,Single-ply,SBD,M,
Boys,109.77,2,Tayton Auldridge,Forney,99.84,244.94,154.22,222.26,621.42,Single-ply,SBD,M,
Boys,109.77,3,Astin Ledbetter,Mount Pleasant,103.69,195.04,151.95,235.87,582.87,Single-ply,SBD,M,
Boys,109.77,4,Cameron Bork,Little Elm,107.23,215.46,154.22,201.85,571.53,Single-ply,SBD,M,
Boys,109.77,5,Demetrius Williams,Cedar Hill,102.87,219.99,115.67,201.85,537.51,Single-ply,SBD,M,
Boys,109.77,6,Clayton Miller,Mount Pleasant,107.41,215.46,138.35,183.7,537.51,Single-ply,SBD,M,
Boys,109.77,7,Jacob Reyes,Coppell,104.78,188.24,108.86,195.04,492.15,Single-ply,SBD,M,
Boys,109.77,8,Zachary Morales,Coppell,108.05,183.7,102.06,183.7,469.47,Single-ply,SBD,M,
Boys,109.77,9,Andrew Gross,Coppell,104.14,131.54,70.31,158.76,360.61,Single-ply,SBD,M,
Boys,124.74,1,Phoenix Crump,Cedar Hill,118.12,251.74,127.01,238.14,616.89,Single-ply,SBD,M,
Boys,124.74,2,Christian Thomas,Forney,122.29,213.19,149.69,204.12,566.99,Single-ply,SBD,M,
Boys,124.74,3,Chimdia Nwaiwu,Coppell,116.12,188.24,127.01,229.06,544.31,Single-ply,SBD,M,
Boys,124.74,4,Trevor Timmerman,Coppell,121.02,197.31,124.74,210.92,532.97,Single-ply,SBD,M,
Boys,139.71+,1,Charles Weber,Coppell,157.85,249.48,161.03,217.72,628.23,Single-ply,SBD,M,
Boys,139.71+,2,Payton Stewart,Coppell,141.7,188.24,133.81,197.31,519.36,Single-ply,SBD,M,
Boys,,NS,Daniel García,Mount Pleasant,,190.51,102.06,183.7,,Single-ply,SBD,M,
Boys,,NS,Oshan Adonri,Little Elm,,,,,,Single-ply,SBD,M,
Boys,,NS,Zachary Fuller,Forney,,,,,,Single-ply,SBD,M,
Boys,,NS,Josiah Jefferson,Cedar Hill,,,,,,Single-ply,SBD,M,
Boys,,NS,Rontavis Jackson,Cedar Hill,,,,,,Single-ply,SBD,M,
