Name,Event,Equipment,Sex,BirthDate,BodyweightKg,Age,Division,WeightClassKg,State,Team,Squat1Kg,Squat2Kg,Squat3Kg,Squat4Kg,Best3SquatKg,Bench1Kg,Bench2Kg,Bench3Kg,Bench4Kg,Best3BenchKg,Deadlift1Kg,Deadlift2Kg,Deadlift3Kg,Deadlift4Kg,Best3DeadliftKg,TotalKg,Place
Karina Bureaux,B,Raw,F,1974-10-16,52.3,40,M 40-44,56,BA,Power Unidos,,,,,,40,43,45,,45,,,,,,45,1
Marlene Cavalieri,B,Raw,F,1992-09-21,59.5,22,Jun,60,BA,Dingo Team,,,,,,40,45,50,,50,,,,,,50,2
Yohana Gramajo,B,Raw,F,1993-10-30,59.9,21,Jun,60,CN,Titanium Gym,,,,,,70,80,82.5,,82.5,,,,,,82.5,1
Yohana Sanchez,B,Raw,F,1990-09-30,59.6,24,Open,60,CN,Titanium Gym,,,,,,30,40,-45,,40,,,,,,40,1
Perla Cambisano,B,Raw,F,1973-10-13,65.7,41,M 40-44,67.5,BA,Dingo Team,,,,,,50,52.5,55,,55,,,,,,55,1
Eugenia Artero,B,Raw,F,1990-06-07,78.2,25,Open,82.5,BA,Power Unidos,,,,,,45,50,55,60.5,55,,,,,,55,1
Viviana Parodi,B,Raw,F,1971-02-18,124,44,M 40-44,90+,BA,Power Unidos,,,,,,75,80,85,90,85,,,,,,85,1
Yoel Montero,B,Raw,M,1992-10-28,57.6,22,Jun,60,BA,F.Sagrado,,,,,,67.5,72.5,75,,75,,,,,,75,2
Matias Flores,B,Raw,M,1996-08-27,57.1,18,Tn 18-19,60,BA,F.Sagrado,,,,,,80,82.5,-87.5,,82.5,,,,,,82.5,1
Luciano Echegaray,B,Raw,M,1992-02-27,59.8,23,Jun,60,BA,Power Unidos,,,,,,82.5,87.5,90,,90,,,,,,90,1
Martin Viale,B,Raw,M,2000-01-12,64.1,15,Tn 13-15,67.5,BA,Vulcano,,,,,,70,85,90,93,90,,,,,,90,1
De Simone Ezequiel,B,Raw,M,1996-07-26,69.5,18,Tn 18-19,75,BA,Power Unidos,,,,,,90.5,95,100,-105,100,,,,,,100,1
Nahuel Montero,B,Raw,M,1994-11-26,67.5,20,Jun,67.5,BA,F.Sagrado,,,,,,75,80,82.5,,82.5,,,,,,82.5,1
Yamil Legal,B,Raw,M,1989-10-23,69.9,25,Open,75,CN,Titanium Gym,,,,,,110,120,130,,130,,,,,,130,2
Hugo Francese,B,Raw,M,1989-12-02,67.3,25,Open,67.5,BA,Indiana,,,,,,125,132.5,-140,,132.5,,,,,,132.5,1
Jorge Canceco,B,Raw,M,1975-05-05,72.2,40,M 40-44,75,BA,Corpo,,,,,,95,100,110,,110,,,,,,110,1
Gustavo Almada,B,Raw,M,1991-12-17,79.7,23,Jun,82.5,BA,Gym Gentes,,,,,,135,146,147.5,-150,147.5,,,,,,147.5,1
Cristian Acevedo,B,Raw,M,1963-09-24,71.9,51,M 50-54,75,BA,Corpo,,,,,,90,95,97.5,100,97.5,,,,,,97.5,1
Jose Santillan,B,Raw,M,1991-12-05,73.3,23,Jun,75,BA,Fitness Gym,,,,,,-120,125,-135,,125,,,,,,125,1
Jonthan Castañares,B,Raw,M,2000-12-15,73.7,14,Tn 13-15,75,BA,Fitness Gym,,,,,,50,55,-60,,55,,,,,,55,1
Leandro Fainburg,B,Raw,M,1987-06-03,73.1,28,Open,75,BA,Power Unidos,,,,,,165,175,177.5,180.5,177.5,,,,,,177.5,1
Hugo Chavez,B,Raw,M,1959-12-02,81.2,55,M 55-59,82.5,BA,Dingo Team,,,,,,100,105,107.5,-110,107.5,,,,,,107.5,1
Sergio Barrientos,B,Raw,M,1978-09-03,78.2,36,SubM,82.5,SL,Pringles,,,,,,-147.5,147.5,-157,,147.5,,,,,,147.5,1
Roberto Cavani Rosas,B,Raw,M,1965-09-05,84.6,49,M 45-49,90,SL,Pringles,,,,,,135,140,145,,145,,,,,,145,1
Martin Fernadez,B,Raw,M,1977-12-12,81.1,37,SubM,82.5,BA,Fitness Gym,,,,,,120,125,130,,130,,,,,,130,2
Carlos Morina,B,Raw,M,1964-01-11,82.1,51,M 50-54,82.5,BA,Fitness Gym,,,,,,-125,125,130,-135,130,,,,,,130,1
Mario Sotelo,B,Raw,M,1972-05-28,87.6,43,M 40-44,90,CN,Titanium Gym,,,,,,70,80,90,,90,,,,,,90,1
Adrian Claro,B,Raw,M,1988-03-10,86.5,27,Open,90,BA,Indiana,,,,,,170,180,185,,185,,,,,,185,1
Carlos Porta,B,Raw,M,1933-03-29,87.1,82,M 80+,90,CB,Chavez,,,,,,70,75,80,,80,,,,,,80,1
Emiliano Barrionuevo,B,Raw,M,1991-12-24,90,23,Jun,90,BA,Vulcano,,,,,,160,172.5,-182.5,,172.5,,,,,,172.5,1
Marcelo Carrizo,B,Raw,M,1978-08-05,89.7,36,SubM,90,RN,Leon Gym,,,,,,130,137.5,142.5,,142.5,,,,,,142.5,1
Mariano Segade,B,Raw,M,1976-12-05,87.3,38,SubM,90,BA,Fitness Gym,,,,,,105,-115,117.5,,117.5,,,,,,117.5,2
Eldo Galvan,B,Raw,M,1962-12-24,92.4,52,M 50-54,100,BA,Ecrac,,,,,,130,140,150,154,150,,,,,,150,1
Lisandro Pasquale,B,Raw,M,1968-01-07,98.8,47,M 45-49,100,BA,Vulcano,,,,,,140,151,152.5,-160.5,152.5,,,,,,152.5,1
Hernan Camara,B,Raw,M,1985-07-24,100,29,Open,100,BA,Indiana,,,,,,180,190,-197.5,,190,,,,,,190,1
Pablo Aurellio,B,Raw,M,1978-12-22,103,36,SubM,110,BA,Corpo +,,,,,,135,140,145,-150,145,,,,,,145,1
Amado Monzon,B,Raw,M,1962-05-08,110,53,M 50-54,110,BA,Vet. Malvinas,,,,,,120,140,145,-150,145,,,,,,145,1
Nicolas Pato,B,Raw,M,1984-04-16,110,31,Open,110,BA,Vulcano,,,,,,190,-210,-210,,190,,,,,,190,1
Juan Pablo Coria,B,Raw,M,1972-01-22,109,43,M 40-44,110,BA,Mateos,,,,,,165,170,175,,175,,,,,,175,1
Fabrega Pablo,B,Raw,M,1942-07-09,71.3,73,M 70-74,75,CN,Force machine,,,,,,50,55,-60,,55,,,,,,55,1
Gabriel Lopez,B,Raw,M,1977-03-06,118.7,38,SubM,125,BA,Vulcano,,,,,,140,150,160,-166,160,,,,,,160,1
Nestor Gonzalez #1,B,Raw,M,1970-03-06,113.3,45,M 45-49,125,BA,Vulcano,,,,,,145,157,160,-161,160,,,,,,160,1
Hugo Guiglioni,B,Raw,M,1964-12-13,135.2,50,M 50-54,140,BA,Titanium Gym,,,,,,100,-110,,,100,,,,,,100,1
Gabriel Garrido,B,Multi-ply,M,1984-08-14,66.2,30,Open,67.5,SL,Pringles,,,,,,105,-107.5,-107.5,,105,,,,,,105,1
Ruben Reynoso,B,Multi-ply,M,1997-11-06,75.9,17,Tn 16-17,82.5,BA,Vulcano,,,,,,110,122.5,130,140,130,,,,,,130,1
Miguel Aguirre,B,Multi-ply,M,1974-04-09,90,41,M 40-44,90,CN,Titanium Gym,,,,,,130,150,,,150,,,,,,150,1
Mariano Miravalles,B,Multi-ply,M,1980-10-24,98.5,34,Open,100,BA,SportGym,,,,,,190,205,-210,,205,,,,,,205,1
Jose Aguirre,B,Multi-ply,M,1970-11-17,95,44,M 40-44,100,CN,Titanium Gym,,,,,,140,150,,,150,,,,,,150,1
Raul Olivieri,B,Multi-ply,M,1983-11-30,99.2,31,Open,100,CN,Titanium Gym,,,,,,140,150,,,150,,,,,,150,2
Maria Ramos #1,SBD,Wraps,F,1990-04-20,47,25,Open,48,JY,Colossus Gym,-150,150,170,,170,60,65.5,70,,70,127.5,140,147.5,,147.5,387.5,1
Carolina Ramos #1,SBD,Wraps,F,1991-11-25,48,23,Jun,48,JY,Colossus Gym,95,110,120,,120,45,50,-55,,50,120,135,145,,145,315,1
Fernanda Vaccaro,SBD,Wraps,F,1979-01-23,49.4,36,SubM,52,CB,Soria,102.5,112.5,-118,,112.5,47.5,52.5,-55,,52.5,115,123,-132.5,,123,288,1
Alejandra Caballero,SBD,Wraps,F,1992-09-07,55.6,22,Jun,56,CN,Force Machine,40,50.5,57.5,,57.5,25,30,-38,,30,50,62.5,70,,70,157.5,1
Sandra Pagliariche,SBD,Wraps,F,1987-04-04,55.7,28,Open,56,BA,Spinardi Team,147.5,160,170,,170,85,92.5,100,,100,120,130,-140,,130,400,1
Gabriela Vaccaro,SBD,Wraps,F,1988-05-12,60,27,Open,60,CB,Soria,100,110,120,,120,45,52.5,60,,60,135,145,-167.5,,145,325,1
Natalia Uranga,SBD,Wraps,F,1987-08-20,55.4,27,Open,56,BA,Indiana,92.5,97.5,102,,102,37.5,40,42.5,,42.5,105,115,-125,,115,259.5,2
Maria Alvarez,SBD,Wraps,F,1984-09-21,58.9,30,Open,60,BA,F. Sagrado,105,-112.5,112.5,,112.5,37.5,40,-42.5,,40,105,110,115,,115,267.5,2
Yohana Gramajo,SBD,Wraps,F,1993-10-30,59.9,21,Jun,60,CN,Titanium Gym,110,120,130,,130,70,80,85,,85,100,115,130,,130,345,1
Yohana Sanchez,SBD,Wraps,F,1990-09-30,59.6,24,Open,60,CN,Titanium Gym,-80,80,90,,90,30,35,40,,40,85,90,100,,100,230,3
Macarena Bracco,SBD,Wraps,F,1988-03-03,64.7,27,Open,67.5,BA,Indiana,145,152.5,160,,160,62.5,67.5,70.5,,70.5,145,152.5,160,,160,390.5,1
Estefania Cardozo,SBD,Wraps,F,1994-03-15,63.1,21,Jun,67.5,JY,Colossus Gym,130,140,150,,150,50,-57.5,57.5,,57.5,135,145,152.5,,152.5,360,1
Cesar Zamudio,SBD,Wraps,M,1986-09-11,59.6,28,Open,60,CN,Force Machine,85,90,95,,95,80,85,92.5,,92.5,130,-140,,,130,317.5,1
Rocio Miño,SBD,Wraps,F,1989-08-09,67.3,25,Open,67.5,CN,Force Machine,80,-90,,,80,45,55,-62.5,,55,80,90,100,,100,235,2
Rodrigo Giles,SBD,Wraps,M,1977-01-07,56,38,SubM,56,BA,Indiana,-85,90,102,,102,80,85,-90,,85,100,120,130,,130,317,1
Alexis Paredes,SBD,Wraps,M,1995-04-09,59.9,20,Jun,60,SC,Alpha Gym,125,135,146.5,,146.5,75,85,92.5,,92.5,140,155,162,,162,401,1
Cristian Also,SBD,Wraps,M,1992-11-25,66.6,22,Jun,67.5,SC,Alpha Gym,140,155,162.5,,162.5,80,95,-100,,95,180,-200,-200,,180,437.5,2
Aldo Ballesteros,SBD,Wraps,M,1991-10-30,66.2,23,Jun,67.5,CN,Bull Gym,190,-210,-210,,190,120,130,-132.5,,130,200,-220,220,,220,540,1
Jose Mata,SBD,Multi-ply,M,1941-04-29,69.9,74,M 70-74,75,BA,Vulcano,120,130,140.5,,140.5,70,-80.5,,,70,140,150,160.5,170,160.5,371,1
Rodrigo Aguirre,SBD,Wraps,M,1991-08-24,65.3,23,Jun,67.5,CN,Force Machine,90,105,120,,120,90,-100,-100,,90,130,140,170,,170,380,3
Esteban Lugo,SBD,Wraps,M,1997-02-20,62.1,18,Tn 18-19,67.5,CN,Force Machine,150,180,190,,190,90,102.5,105,-110,105,150,180,-192,,180,475,1
Jesus Benitez,SBD,Wraps,M,1986-02-10,74.2,29,Open,75,BA,Power Unidos,-140,140,150,,150,90,100,-102.5,,100,185,200,210,,210,460,4
Serafin de Simone,SBD,Wraps,M,1970-02-28,74.2,45,M 45-49,75,BA,Power Unidos,220,240,250,,250,140,150,155,,155,185.5,200,205,,205,610,1
Marcos Villagra,SBD,Wraps,M,1985-10-12,74.3,29,Open,75,RN,Gym Fierros,175,-190,190,,190,130,-135,-135,,130,200,-212.5,212.5,,212.5,532.5,1
Francis Vilte,SBD,Wraps,M,1996-03-06,73,19,Tn 18-19,75,SC,Alpha Gym,-180,180,200,,200,-72.5,75,85,,85,160,185,197.5,,197.5,482.5,1
Javier Yannibelli,SBD,Wraps,M,1985-11-19,75,29,Open,75,BA,Indiana,145,157.5,170,,170,92.5,102.5,-108,,102.5,185,200,-212.5,,200,472.5,3
Leandro Cruz,SBD,Wraps,M,1992-04-01,73.2,23,Jun,75,BA,Sport Gym,140,160,170,,170,117.5,122.5,-127.5,,122.5,165,185,200,,200,492.5,1
Dario Navarro,SBD,Wraps,M,1997-05-30,80,18,Tn 18-19,82.5,BA,Fuego Sagrado,130,145,-155,,145,70,75,80,,80,140,160,172,,172,397,1
Cristian Muñoz,SBD,Wraps,M,1984-05-19,74.8,31,Open,75,CN,Bull Gym,170,180,-192.5,,180,130,135,-137.5,,135,180,200,,,200,515,2
Júlio Chavez #1,SBD,Wraps,M,1952-08-19,82.6,62,M 60-64,90,CB,Chavez,150,170,-180,,170,85,92.5,97.5,,97.5,180,200,222.5,,222.5,490,1
Legal Yamil,SBD,Wraps,M,1979-11-22,72.8,35,SubM,75,CN,Titanium Gym,120,140,170,,170,110,120,130,,130,140,160,-180,,160,460,1
Jose Egües,SBD,Wraps,M,1985-07-27,79,29,Open,82.5,JY,Colossus Gym,285,-305.5,305.5,,305.5,140,150,,,150,250,-270,270,,270,725.5,1
Sergio Barrientos,SBD,Wraps,M,1978-09-03,80,36,SubM,82.5,SL,Pringles,225,-235,-243,,225,145,152.5,-155,,152.5,205,215,220,,220,597.5,1
Mario Sotelo,SBD,Wraps,M,1972-05-28,88.6,43,M 40-44,90,CN,Titanium Gym,-120,120,140,,140,70,80,90,,90,130,140,150,,150,380,1
Omar Vera,SBD,Wraps,M,1989-10-10,82.6,25,Open,90,BA,Indiana,230,242.5,-260,,242.5,130,140,-145,,140,230,245,255,,255,637.5,1
Jonathan Cativelli,SBD,Wraps,M,1992-11-18,89.9,22,Jun,90,CB,Soria,200,215,230,,230,-105,112,125,,125,220,235,250,-265.5,250,605,1
Franco Elizaran,SBD,Wraps,M,1996-10-07,88,18,Tn 18-19,90,BA,Spinardi Team,200,-212.5,212.5,,212.5,-125,-125,,,,,,,,,,DQ
Sergio Gutierrez,SBD,Wraps,M,1978-09-09,85.2,36,SubM,90,JY,,170,-185,185,,185,110,120,122.5,,122.5,190,210,222.5,,222.5,530,2
Leonel Rios Robles,SBD,Wraps,M,1990-09-21,86,24,Open,90,CN,Force Machine,160,180,195,,195,120,125,-130,,125,165,185,-197.5,,185,505,2
Gaston Gutierrez,SBD,Wraps,M,1979-11-23,83.1,35,SubM,90,JY,,180,200,-220,,200,110,120,127.5,,127.5,180,210,225,,225,552.5,1
Cristian Soria,SBD,Wraps,M,1981-12-17,95.2,33,Open,100,JY,,180,-210,-220,,180,130,140,-155,,140,180,200,-225,,200,520,2
Fredy Baldiviezo,SBD,Wraps,M,1977-03-08,91.8,38,SubM,100,JY,,150,170,200,,200,110,120,-130,,120,150,165,175,,175,495,1
Kevin Godoy,SBD,Wraps,M,1993-03-04,96.4,22,Jun,100,CB,Soria,200,220,236,,236,-105,112,125,,125,220,235,-251,,235,596,1
Mariano Miravalles,SBD,Wraps,M,1980-10-24,99.3,34,Open,100,BA,Sport Gym,200,-220,-225,,200,150,160,162.5,,162.5,240,260,270,,270,632.5,1
Javier Villaverde,SBD,Wraps,M,1969-03-11,99.6,46,M 45-49,100,BA,Indiana,240,255,265,,265,150,160,168,,168,260,272.5,-280,,272.5,705.5,1
Angel Fernandez,SBD,Wraps,M,1975-11-01,85.1,39,SubM,90,RN,Extremo,175,-190,190,,190,100,110,-117.6,,110,185,200,215,,215,515,3
Juan Manavella,SBD,Wraps,M,1977-12-15,108.8,37,SubM,110,CB,Soria,270,280,292.5,,292.5,162.5,172.5,-180,,172.5,260,275,290,300,290,755,1
Ramiro Chavez,SBD,Wraps,M,1997-12-24,103.6,17,Tn 16-17,110,JY,Sagitario,200.5,230,240,,240,110,120,127.5,130,127.5,220,240,-250.5,,240,607.5,1
Maximiliano Morel,SBD,Wraps,M,1995-05-27,107.6,20,Jun,110,ER,Rocamora,140,150,170,,170,100,110,-120,,110,140,180,-200,,180,460,1
Nicolas Mateyka,SBD,Wraps,M,1985-07-07,119.7,30,Open,125,BA,Indiana,250,-270,275,,275,170,-177.5,,,170,240,,,,240,685,1
Hugo Guiglioni,SBD,Wraps,M,1964-12-13,135.7,50,M 50-54,140,CN,Titanium Gym,120,140,160,,160,100,-110,,,100,120,140,,,140,400,1
Matias Flores,SBD,Multi-ply,M,1985-05-04,90,30,Open,90,JY,MEF,335,360,385,,385,-160,160,185,,185,265,290,300,,300,870,1
Rodrigo Chavez,SBD,Multi-ply,M,1990-03-08,97.9,25,Open,100,CB,Chavez,260,-280,280,,280,180,190.5,195,,195,225,252.5,-260,,252.5,727.5,1
Jose Aguirre,SBD,Multi-ply,M,1970-11-17,94.7,44,M 40-44,100,CN,Titanium Gym,200,220,240,,240,130,140,-150,,140,220,240,,,240,620,1
Raul Olivieri,SBD,Multi-ply,M,1983-11-30,99,31,Open,100,CN,Titanium Gym,220,240,-260,,240,140,150,160,,160,220,240,250,,250,650,2
Andres Hugo,SBD,Multi-ply,M,1979-12-26,107.9,35,SubM,110,NQ,Escuela Powe,-365,-365,375,,375,-205,205,,,205,295,305,-320.5,,305,885,1
Alicia Hernandez,SBD,Multi-ply,F,1976-12-02,79.9,38,SubM,82.5,JY,Titos Gym,180,210,-235,,210,105,120,-135,,120,-145,145,,,145,475,1
Gabriel Garrido,SBD,Multi-ply,M,1984-08-14,66.2,30,Open,67.5,SL,Pringles,190,195,200,,200,105,110,-117,,110,200,-212,212,,212,522,2
Gabriel Reynoso,SBD,Wraps,M,1971-10-17,126.1,43,M 40-44,140,BA,Vulcano,130,140.5,150,157.5,150,80,85,92.5,,92.5,160,175,182.5,,182.5,425,1
Leonel Ledesma,SBD,Multi-ply,M,1995-04-25,65.1,20,Jun,67.5,JY,MEF,175,180,-200,,180,80,85,90,,90,185,195,205,,205,475,1
Martin Mattos,SBD,Multi-ply,M,1980-09-20,66.5,34,Open,67.5,JY,MEF,220,235,250,,250,110,-120,120,,120,190,202.5,,,202.5,572.5,1
Sergio Anachuri,SBD,Multi-ply,M,1971-05-21,72.2,44,M 40-44,75,JY,MEF,160,180,200,,200,100,110,-130,,110,160,180,-200,,180,490,1
Cristian Centeno,SBD,Multi-ply,M,1991-11-12,79.2,23,Jun,82.5,JY,MEF,-240,240,-270,,240,120,150,165,,165,200,220,-225,,220,625,1
Luis Comelli,SBD,Multi-ply,M,1942-04-30,89.3,73,M 70-74,90,BA,Comelli,130,140,-150,,140,-80,-80,-80,,,,,,,,,DQ
Miguel Aguirre,SBD,Multi-ply,M,1974-04-09,89.5,41,M 40-44,90,CN,Titanium Gym,150,170,200,,200,140,155,,,155,180,200,220,,220,575,1
Daniela Ricail,BD,Raw,F,1991-12-03,69.5,23,Jun,75,CN,,,,,,,60,70,-75,,70,140,145,,,145,215,1
Raul Olivieri,BD,Multi-ply,M,1983-11-30,99,31,Open,100,CN,,,,,,,140,150,160,,160,220,240,250,,250,410,1
Martin Cousau,D,Raw,M,1987-03-04,98,28,Open,100,BA,Vulcano,,,,,,,,,,,200,222.5,-230,,222.5,222.5,1
