Division,WeightClassKg,Place,Name,Team,BodyweightKg,Best3SquatKg,Best3BenchKg,Best3DeadliftKg,TotalKg,Equipment,Event,Sex,BirthDate
Boys,51.71,1,Kennedy Pelico,League City Clear Creek,50.53,138.35,77.11,156.49,371.95,Single-ply,SBD,M,
Boys,51.71,2,Tyler Hoang,Nederland,50.71,145.15,81.65,145.15,371.95,Single-ply,SBD,M,
Boys,51.71,3,Cruz Vera,Conroe,51.26,131.54,90.72,149.69,371.95,Single-ply,SBD,M,
Boys,51.71,4,Tristan Brown,Nederland,50.62,156.49,61.23,149.69,367.41,Single-ply,SBD,M,
Boys,51.71,5,Carmine Benavides,Texas City,50.62,142.88,86.18,129.27,358.34,Single-ply,SBD,M,
Boys,51.71,6,Aaron Hernandez,Conroe Grand Oaks,49.26,124.74,72.57,145.15,342.46,Single-ply,SBD,M,
Boys,51.71,7,Aramis Ibarra,Conroe Caney Creek,50.35,111.13,77.11,142.88,331.12,Single-ply,SBD,M,
Boys,51.71,8,Tyler Vu,Dickinson,49.26,131.54,61.23,127.01,319.78,Single-ply,SBD,M,
Boys,51.71,9,Jesus Arroyo,New Caney,50.08,117.93,72.57,124.74,315.25,Single-ply,SBD,M,
Boys,51.71,10,Bryton Davidson,New Caney,49.8,129.27,58.97,117.93,306.17,Single-ply,SBD,M,
Boys,51.71,11,Nicholas Ramos,Pearland Dawson,51.44,113.4,58.97,127.01,299.37,Single-ply,SBD,M,
Boys,51.71,12,William Thornton,Magnolia,50.8,108.86,68.04,117.93,294.84,Single-ply,SBD,M,
Boys,55.79,1,Erik Julio,Houston Northbrook,55.25,183.7,83.91,183.7,451.32,Single-ply,SBD,M,
Boys,55.79,2,Matthew Olague,New Caney,55.16,170.1,97.52,172.37,439.98,Single-ply,SBD,M,
Boys,55.79,3,Brandon Leblanc,Magnolia West,54.98,154.22,90.72,192.78,437.72,Single-ply,SBD,M,
Boys,55.79,4,Rodrigo Benegas,Conroe,55.07,158.76,88.45,165.56,412.77,Single-ply,SBD,M,
Boys,55.79,5,Emmanuel Batongmalaki,Baytown Lee,54.25,131.54,81.65,174.63,387.82,Single-ply,SBD,M,
Boys,55.79,6,Isaac Cortinas,New Caney Porter,54.61,147.42,97.52,142.88,387.82,Single-ply,SBD,M,
Boys,55.79,7,Marcos Aguirre,Pasadena Memorial,54.79,142.88,92.99,142.88,378.75,Single-ply,SBD,M,
Boys,55.79,8,Damon Arnold,Conroe The Woodlands,55.07,136.08,92.99,145.15,374.21,Single-ply,SBD,M,
Boys,55.79,9,Jackson Petty,Montgomery Lake Creek,55.16,122.47,74.84,136.08,333.39,Single-ply,SBD,M,
Boys,55.79,DQ,Mateo Aguirre,Pasadena Memorial,54.25,145.15,,,,Single-ply,SBD,M,
Boys,55.79,DQ,Jacob Yeskie,Willis,55.25,151.95,,,,Single-ply,SBD,M,
Boys,59.87,1,Hank Hewgley,Conroe The Woodlands,59.24,195.04,117.93,185.97,498.95,Single-ply,SBD,M,
Boys,59.87,2,Xzavier Guerrero,Alvin,59.87,208.65,99.79,190.51,498.95,Single-ply,SBD,M,
Boys,59.87,3,Brady Bearden,Port Neches-Groves,59.06,188.24,131.54,176.9,496.68,Single-ply,SBD,M,
Boys,59.87,4,Emmanuel Villagomez,Conroe Caney Creek,59.33,183.7,115.67,192.78,492.15,Single-ply,SBD,M,
Boys,59.87,5,Caleb Abbott,Magnolia,59.42,195.04,111.13,183.7,489.88,Single-ply,SBD,M,
Boys,59.87,6,Anthony Garcia,Alvin,59.87,210.92,86.18,176.9,474,Single-ply,SBD,M,
Boys,59.87,7,Luis Santillan,New Caney,59.15,190.51,95.25,170.1,455.86,Single-ply,SBD,M,
Boys,59.87,8,Jim Gomez,Dickinson,59.78,185.97,90.72,176.9,453.59,Single-ply,SBD,M,
Boys,59.87,9,Josyah Dekelaita,Dickinson,59.69,172.37,90.72,179.17,442.25,Single-ply,SBD,M,
Boys,59.87,10,Miguel Velez,League City Clear Creek,59.87,172.37,86.18,174.63,433.18,Single-ply,SBD,M,
Boys,59.87,11,Diego Manteca,Waller,58.79,185.97,99.79,145.15,430.91,Single-ply,SBD,M,
Boys,59.87,DQ,Tristin Corn,Texas City,59.87,174.63,102.06,,,Single-ply,SBD,M,
Boys,67.13,1,Daniel Gil,Conroe The Woodlands,66.5,247.21,151.95,233.6,632.76,Single-ply,SBD,M,
Boys,67.13,2,Rogelio Barrera,Conroe,66.59,244.94,136.08,240.4,621.42,Single-ply,SBD,M,
Boys,67.13,3,Daniel García,Dickinson,66.32,208.65,124.74,215.46,548.85,Single-ply,SBD,M,
Boys,67.13,4,Andrew Veres,Conroe Woodlands College Park,65.95,199.58,127.01,195.04,521.63,Single-ply,SBD,M,
Boys,67.13,5,Joseph Tellez,Magnolia,66.13,192.78,131.54,190.51,514.83,Single-ply,SBD,M,
Boys,67.13,6,Deonald Butler,Magnolia,67.13,190.51,117.93,199.58,508.02,Single-ply,SBD,M,
Boys,67.13,7,Jesus Alaniz,Alvin,64.86,226.8,90.72,188.24,505.76,Single-ply,SBD,M,
Boys,67.13,8,Nate Provost,Conroe The Woodlands,65.59,199.58,92.99,206.38,498.95,Single-ply,SBD,M,
Boys,67.13,9,Jayden DeKelaita,Dickinson,66.59,188.24,104.33,204.12,496.68,Single-ply,SBD,M,
Boys,67.13,10,Jerry Contreras,Conroe The Woodlands,65.68,190.51,102.06,201.85,494.42,Single-ply,SBD,M,
Boys,67.13,11,Victor Williams,Manvel,65.86,192.78,104.33,197.31,494.42,Single-ply,SBD,M,
Boys,67.13,DQ,Christian Garcia,Magnolia West,67.04,208.65,122.47,,,Single-ply,SBD,M,
Boys,74.84,1,Aiden Peterson,Conroe The Woodlands,73.3,238.14,147.42,265.35,650.91,Single-ply,SBD,M,
Boys,74.84,2,Larry Brooks,Beaumont West Brook,72.3,249.48,151.95,213.19,614.62,Single-ply,SBD,M,
Boys,74.84,3,Jonathan Martin,Beaumont United,73.39,231.33,129.27,240.4,601.01,Single-ply,SBD,M,
Boys,74.84,4,Bladdin Hill,Dickinson,73.39,233.6,136.08,226.8,596.47,Single-ply,SBD,M,
Boys,74.84,5,Sergio Hinojosa,Baytown Goose Creek Memorial,70.85,213.19,120.2,260.82,594.21,Single-ply,SBD,M,
Boys,74.84,6,James Harris,Dayton,73.39,215.46,120.2,254.01,589.67,Single-ply,SBD,M,
Boys,74.84,7,Mauricio Kerguelen,Conroe The Woodlands,74.48,235.87,138.35,215.46,589.67,Single-ply,SBD,M,
Boys,74.84,8,Josue Velasquez,New Caney Porter,72.39,204.12,136.08,210.92,551.11,Single-ply,SBD,M,
Boys,74.84,9,Joshua Murphy,Alvin,72.57,199.58,131.54,192.78,523.9,Single-ply,SBD,M,
Boys,74.84,10,Tevian Jefferson,Conroe Oak Ridge,74.57,206.38,108.86,204.12,519.36,Single-ply,SBD,M,
Boys,82.1,1,LaMarcus Owens,Manvel,82.1,258.55,145.15,251.74,655.44,Single-ply,SBD,M,
Boys,82.1,2,Fernando Garcia,Channelview,78.93,272.16,136.08,233.6,641.83,Single-ply,SBD,M,
Boys,82.1,3,Cace Jones,Dickinson,80.83,254.01,127.01,260.82,641.83,Single-ply,SBD,M,
Boys,82.1,4,Zayne Sheppard,Texas City,78.2,249.48,136.08,226.8,612.35,Single-ply,SBD,M,
Boys,82.1,5,Aden Arredondo,Dickinson,80.1,240.4,145.15,226.8,612.35,Single-ply,SBD,M,
Boys,82.1,6,Mike Carter,Magnolia,81.37,244.94,151.95,215.46,612.35,Single-ply,SBD,M,
Boys,82.1,7,Nick Beagle,Conroe The Woodlands,82.1,226.8,145.15,240.4,612.35,Single-ply,SBD,M,
Boys,82.1,8,Cody Kelley,Montgomery Lake Creek,82.1,242.67,138.35,231.33,612.35,Single-ply,SBD,M,
Boys,82.1,9,Donovan Garcia,Magnolia West,81.19,238.14,133.81,226.8,598.74,Single-ply,SBD,M,
Boys,82.1,10,Eric Steil,Port Neches-Groves,80.29,249.48,117.93,208.65,576.06,Single-ply,SBD,M,
Boys,82.1,11,Rocky Ketchum,League City Clear Creek,80.83,222.26,113.4,238.14,573.79,Single-ply,SBD,M,
Boys,89.81,1,Raymond Zapata,Channelview,87.54,317.51,165.56,260.82,743.89,Single-ply,SBD,M,
Boys,89.81,2,Cam'ron Willis,Dayton,87.82,278.96,142.88,299.37,721.21,Single-ply,SBD,M,
Boys,89.81,3,Andrew Larkworthy,Conroe The Woodlands,88.36,242.67,176.9,244.94,664.51,Single-ply,SBD,M,
Boys,89.81,4,Nicholas Stoughton,Alvin,88.54,272.16,158.76,233.6,664.51,Single-ply,SBD,M,
Boys,89.81,5,Jamal Gray,Texas City,89.63,272.16,154.22,233.6,659.98,Single-ply,SBD,M,
Boys,89.81,6,Eddie Parker,Alvin,88.72,254.01,174.63,210.92,639.57,Single-ply,SBD,M,
Boys,89.81,7,Jonathan Sagastizado,Dickinson,85.64,260.82,131.54,242.67,635.03,Single-ply,SBD,M,
Boys,89.81,8,Robert Dorado,Magnolia West,89.81,254.01,142.88,238.14,635.03,Single-ply,SBD,M,
Boys,89.81,9,Andrew Ortiz,Magnolia,87.54,251.74,154.22,222.26,628.23,Single-ply,SBD,M,
Boys,89.81,10,Andrew Tran,Montgomery,86.91,244.94,149.69,226.8,621.42,Single-ply,SBD,M,
Boys,89.81,11,David Walls,New Caney Porter,88.99,254.01,124.74,226.8,605.55,Single-ply,SBD,M,
Boys,89.81,12,Jonathan Nation,Pearland Dawson,85.28,238.14,120.2,229.06,587.4,Single-ply,SBD,M,
Boys,99.79,1,Demontae Seymore,Manvel,96.07,258.55,163.29,267.62,689.46,Single-ply,SBD,M,
Boys,99.79,2,Myles Terry,Conroe Oak Ridge,98.88,254.01,176.9,251.74,682.66,Single-ply,SBD,M,
Boys,99.79,3,Russel Hasselmeier,Montgomery,93.08,265.35,156.49,256.28,678.12,Single-ply,SBD,M,
Boys,99.79,4,Cayden Clayton,Conroe The Woodlands,94.26,265.35,149.69,242.67,657.71,Single-ply,SBD,M,
Boys,99.79,5,Alex Martin,Conroe The Woodlands,97.79,260.82,161.03,235.87,657.71,Single-ply,SBD,M,
Boys,99.79,6,Tony Teeples,Texas City,97.98,272.16,149.69,235.87,657.71,Single-ply,SBD,M,
Boys,99.79,7,Erik Sandoval,Texas City,95.62,281.23,156.49,215.46,653.17,Single-ply,SBD,M,
Boys,99.79,8,Dijon James,Clute Brazoswood,92.8,226.8,167.83,244.94,639.57,Single-ply,SBD,M,
Boys,99.79,9,Jakob Handy,Conroe The Woodlands,91.53,263.08,133.81,226.8,623.69,Single-ply,SBD,M,
Boys,99.79,10,Francisco Tirado,Magnolia,98.52,244.94,154.22,201.85,601.01,Single-ply,SBD,M,
Boys,99.79,DQ,Johnnie Torres,Nederland,92.17,240.4,127.01,,,Single-ply,SBD,M,
Boys,99.79,DQ,Camron Coleman,Beaumont West Brook,97.07,,156.49,,,Single-ply,SBD,M,
Boys,109.77,1,Payton Korolyk,Conroe Grand Oaks,107.5,285.76,190.51,269.89,746.16,Single-ply,SBD,M,
Boys,109.77,2,Perry Irchirl,Conroe Woodlands College Park,106.41,258.55,154.22,290.3,703.07,Single-ply,SBD,M,
Boys,109.77,3,Alex Flores,Clute Brazoswood,105.23,272.16,176.9,238.14,687.19,Single-ply,SBD,M,
Boys,109.77,4,Chidi Adighibe,Katy Mayde Creek,105.05,278.96,149.69,251.74,680.39,Single-ply,SBD,M,
Boys,109.77,5,Charlie Fox,Alvin,107.95,285.76,158.76,219.99,664.51,Single-ply,SBD,M,
Boys,109.77,6,Jacob Pitzer,Conroe,108.95,265.35,161.03,233.6,659.98,Single-ply,SBD,M,
Boys,109.77,7,Emilio Martinez,Dickinson,106.23,281.23,131.54,235.87,648.64,Single-ply,SBD,M,
Boys,109.77,8,Jack McCarty,Magnolia West,103.33,249.48,154.22,240.4,644.1,Single-ply,SBD,M,
Boys,109.77,9,Prince Echaverry,Houston Northbrook,109.5,272.16,138.35,226.8,637.3,Single-ply,SBD,M,
Boys,109.77,10,Braden Wright,Crosby,106.5,260.82,133.81,233.6,628.23,Single-ply,SBD,M,
Boys,109.77,11,Hayden Jansky,Magnolia West,107.32,226.8,127.01,258.55,612.35,Single-ply,SBD,M,
Boys,109.77,DQ,Kenyon Armstrong,Manvel,102.87,,,,,Single-ply,SBD,M,
Boys,124.74,1,Jacob Harris,Conroe Oak Ridge,115.58,274.42,185.97,290.3,750.7,Single-ply,SBD,M,
Boys,124.74,2,William Yang,Conroe Grand Oaks,120.75,306.17,170.1,272.16,748.43,Single-ply,SBD,M,
Boys,124.74,3,Cobe Williams,Conroe Woodlands College Park,121.47,267.62,185.97,249.48,703.07,Single-ply,SBD,M,
Boys,124.74,4,Braxton Chambers,Beaumont West Brook,119.2,263.08,190.51,235.87,689.46,Single-ply,SBD,M,
Boys,124.74,5,Aiden Garris,Conroe Oak Ridge,120.11,276.69,181.44,222.26,680.39,Single-ply,SBD,M,
Boys,124.74,6,Jordan Able,Clute Brazoswood,123.1,258.55,179.17,226.8,664.51,Single-ply,SBD,M,
Boys,124.74,7,Ford Ivey,Willis,121.47,249.48,181.44,226.8,657.71,Single-ply,SBD,M,
Boys,124.74,8,Marque Johnson,Conroe,117.93,278.96,145.15,226.8,650.91,Single-ply,SBD,M,
Boys,124.74,9,Leighton Mann,Montgomery Lake Creek,116.48,249.48,147.42,240.4,637.3,Single-ply,SBD,M,
Boys,124.74,DQ,Christian Gladney,Beaumont United,122.74,,,,,Single-ply,SBD,M,
Boys,124.74,DQ,Luis Morales,Pearland,122.38,,,,,Single-ply,SBD,M,
Boys,139.71,1,Zach Rogers,Willis,135.9,294.84,174.63,258.55,728.02,Single-ply,SBD,M,
Boys,139.71,2,Aj Belser,Conroe Grand Oaks,135.9,294.84,183.7,247.21,725.75,Single-ply,SBD,M,
Boys,139.71,3,Holden Craver,Nederland,135.53,317.51,163.29,229.06,709.87,Single-ply,SBD,M,
Boys,139.71,4,John Fletcher,Manvel,134.72,269.89,161.03,251.74,682.66,Single-ply,SBD,M,
Boys,139.71,5,Xavier Potts,Manvel,129.18,276.69,149.69,244.94,671.32,Single-ply,SBD,M,
Boys,139.71,6,Dereiaz Wilson,Dickinson,124.92,269.89,163.29,222.26,655.44,Single-ply,SBD,M,
Boys,139.71,7,Jordan Thomas,Channelview,135.26,272.16,176.9,204.12,653.17,Single-ply,SBD,M,
Boys,139.71,8,Justin Snively,Montgomery,129.64,249.48,161.03,240.4,650.91,Single-ply,SBD,M,
Boys,139.71,9,Chance Jackson,Conroe Woodlands College Park,131.63,229.06,195.04,226.8,650.91,Single-ply,SBD,M,
Boys,139.71,10,Ayden Heckendorn,Montgomery Lake Creek,125.37,238.14,172.37,235.87,646.37,Single-ply,SBD,M,
Boys,139.71,11,Chris Rodriguez,Cleveland,130.54,240.4,174.63,224.53,639.57,Single-ply,SBD,M,
Boys,139.71,12,Cameron Del Rey,Conroe Oak Ridge,124.92,240.4,163.29,226.8,630.49,Single-ply,SBD,M,
Boys,139.71,13,Jayden Edmison,Manvel,131.27,247.21,140.61,238.14,625.96,Single-ply,SBD,M,
Boys,139.71,DQ,Dylan Hughes,Alvin Shadow Creek,132.63,292.57,192.78,,,Single-ply,SBD,M,
Boys,139.71+,1,Tavion Byars,Montgomery Lake Creek,167.83,310.71,161.03,263.08,734.82,Single-ply,SBD,M,
Boys,139.71+,2,Josiah Mason,Dickinson,149.87,294.84,199.58,235.87,730.28,Single-ply,SBD,M,
Boys,139.71+,3,Aden Boutte,Channelview,150.59,294.84,145.15,242.67,682.66,Single-ply,SBD,M,
Boys,139.71+,4,Damarcus Wilridge,Conroe,147.96,235.87,163.29,251.74,650.91,Single-ply,SBD,M,
Boys,139.71+,5,Andrew Hall,Nederland,166.01,263.08,158.76,217.72,639.57,Single-ply,SBD,M,
Boys,139.71+,6,Anthony Reyes,Pearland,163.84,272.16,129.27,229.06,630.49,Single-ply,SBD,M,
Boys,139.71+,7,Jaylen Everett,Baytown Sterling,163.11,244.94,147.42,217.72,610.08,Single-ply,SBD,M,
Boys,139.71+,8,Alexander Romero,Dayton,141.52,242.67,124.74,231.33,598.74,Single-ply,SBD,M,
Boys,139.71+,9,Clint Fogie,Pearland Dawson,140.52,254.01,124.74,204.12,582.87,Single-ply,SBD,M,
Boys,139.71+,10,Marcus Kemp,Alvin Shadow Creek,159.48,263.08,117.93,183.7,564.72,Single-ply,SBD,M,
Boys,139.71+,DQ,Micah Liedy,Beaumont United,162.02,,,,,Single-ply,SBD,M,
