Division,WeightClassKg,Place,Name,Team,BodyweightKg,Best3SquatKg,Best3BenchKg,Best3DeadliftKg,TotalKg,Equipment,Event,Sex
Boys,51.71,1,Joey Salinas #1,Jacksboro,51.62,156.49,72.57,156.49,385.55,Single-ply,SBD,M
Boys,51.71,2,Randy Salinas,Bangs,51.62,127.01,68.04,131.54,326.59,Single-ply,SBD,M
Boys,55.79,3,Jose Lopez,Godley,51.8,131.54,68.04,151.95,351.53,Single-ply,SBD,M
Boys,51.71,4,Roger Garcia,Mineral Wells,49.99,108.86,70.31,120.2,299.37,Single-ply,SBD,M
Boys,51.71,5,Daniel Pafford,Godley,50.8,108.86,56.7,120.2,285.76,Single-ply,SBD,M
Boys,51.71,6,Jordan Whiteside,Peaster,50.26,99.79,68.04,115.67,283.5,Single-ply,SBD,M
Boys,55.79,7,Owen Allison,Strawn,51.89,106.59,45.36,124.74,276.69,Single-ply,SBD,M
Boys,51.71,8,Tinnin Smith,Jacksboro,50.44,106.59,61.23,106.59,274.42,Single-ply,SBD,M
Boys,51.71,9,Justin Little,Strawn,48.22,102.06,52.16,117.93,272.16,Single-ply,SBD,M
Boys,51.71,10,Andrew Gonzales,Waco University,50.53,99.79,52.16,104.33,256.28,Single-ply,SBD,M
Boys,51.71,11,Julian Coronado,San Saba,49.9,79.38,45.36,106.59,231.33,Single-ply,SBD,M
Boys,51.71,12,Chance Goodgion,Brownwood,44.18,70.31,34.02,90.72,195.04,Single-ply,SBD,M
Boys,55.79,DQ,Krys Glynn,Waco University,51.89,83.91,56.7,,,Single-ply,SBD,M
Boys,55.79,1,Trevor Richard,Chico,54.07,122.47,77.11,156.49,356.07,Single-ply,SBD,M
Boys,59.87,2,Saul Cervantes,San Saba,55.93,136.08,74.84,145.15,356.07,Single-ply,SBD,M
Boys,55.79,3,Nimo Vega,San Saba,55.25,127.01,70.31,156.49,353.8,Single-ply,SBD,M
Boys,55.79,4,Jonathan Taylor,Lingleville,55.43,124.74,65.77,154.22,344.73,Single-ply,SBD,M
Boys,55.79,5,Grady Rhoden,Alvarado,55.43,127.01,65.77,145.15,337.93,Single-ply,SBD,M
Boys,55.79,6,Chris Kimbell,Cleburne,55.61,124.74,61.23,122.47,308.44,Single-ply,SBD,M
Boys,55.79,7,Dillon Hervey,Mineral Wells,53.07,113.4,63.5,124.74,301.64,Single-ply,SBD,M
Boys,55.79,8,Jordan Mosley,North Crowley,54.98,106.59,65.77,120.2,292.57,Single-ply,SBD,M
Boys,55.79,9,Clifton McKinzie,Whitesboro,54.88,113.4,56.7,120.2,290.3,Single-ply,SBD,M
Boys,59.87,10,Garrett Mowles,Venus,55.97,106.59,63.5,117.93,288.03,Single-ply,SBD,M
Boys,55.79,11,Anthony Garcia,Strawn,54.98,90.72,61.23,113.4,265.35,Single-ply,SBD,M
Boys,59.87,12,Joe Reyes,Brady,55.93,88.45,58.97,113.4,260.82,Single-ply,SBD,M
Boys,67.13,1,Adam Piper,Whitesboro,60.06,151.95,92.99,163.29,408.23,Single-ply,SBD,M
Boys,59.87,2,Corey Crowell,Bangs,59.78,142.88,102.06,156.49,401.43,Single-ply,SBD,M
Boys,59.87,3,Taylor Baum,Coleman,59.78,151.95,95.25,149.69,396.89,Single-ply,SBD,M
Boys,59.87,4,Trace Adams,Iowa Park,57.42,149.69,79.38,163.29,392.36,Single-ply,SBD,M
Boys,59.87,5,Jeremy Stacy,Petrolia,59.15,140.61,65.77,136.08,342.46,Single-ply,SBD,M
Boys,59.87,6,Peyton Polston,Tuscola Jim Ned,58.51,108.86,77.11,136.08,322.05,Single-ply,SBD,M
Boys,59.87,7,Jarrod Wooten,Peaster,59.33,106.59,74.84,120.2,301.64,Single-ply,SBD,M
Boys,67.13,8,Andrew Mangum,Wichita Falls City View,59.96,102.06,52.16,147.42,301.64,Single-ply,SBD,M
Boys,67.13,9,Ross Allison,Strawn,60.1,113.4,68.04,111.13,292.57,Single-ply,SBD,M
Boys,59.87,10,Rowdy Carlson,Brady,58.88,79.38,56.7,92.99,229.06,Single-ply,SBD,M
Boys,59.87,DQ,Dakota Martinez,North Crowley,59.33,113.4,,,,Single-ply,SBD,M
Boys,67.13,DQ,Jerardo Hernandez,Strawn,60.01,,,,,Single-ply,SBD,M
Boys,67.13,1,Antwan Coleman,Waco University,66.32,215.46,115.67,199.58,530.7,Single-ply,SBD,M
Boys,67.13,2,Zane Schrader,Olney,66.86,204.12,108.86,188.24,501.22,Single-ply,SBD,M
Boys,67.13,3,Coy Hart,Venus,66.22,185.97,102.06,181.44,469.47,Single-ply,SBD,M
Boys,67.13,4,Joel Benavides,Venus,65.95,176.9,102.06,185.97,464.93,Single-ply,SBD,M
Boys,67.13,5,Jeremy Fuentes,Cleburne,66.77,185.97,95.25,181.44,462.66,Single-ply,SBD,M
Boys,67.13,6,Ronald Ford,North Crowley,67.13,183.7,95.25,181.44,460.4,Single-ply,SBD,M
Boys,74.84,7,Michael McCullough,Brownwood,67.31,174.63,115.67,158.76,449.06,Single-ply,SBD,M
Boys,67.13,8,Jordan McConnell,Paradise,63.68,179.17,88.45,165.56,433.18,Single-ply,SBD,M
Boys,67.13,9,Chandler Gordon,Hillsboro,66.59,142.88,90.72,142.88,376.48,Single-ply,SBD,M
Boys,67.13,10,Coletyn King,Gordon,61.33,120.2,70.31,158.76,349.27,Single-ply,SBD,M
Boys,67.13,11,Andy Pozos,Brady,65.5,113.4,68.04,167.83,349.27,Single-ply,SBD,M
Boys,67.13,12,Joe Brock,Petrolia,65.5,142.88,70.31,113.4,326.59,Single-ply,SBD,M
Boys,67.13,DQ,Kelton Dethloff,Paradise,64.32,192.78,79.38,,,Single-ply,SBD,M
Boys,67.13,DQ,Rene Rivas,Venus,66.22,,,,,Single-ply,SBD,M
Boys,67.13,DQ,Eddie Munoz,Sidney,62.51,,,,,Single-ply,SBD,M
Boys,67.13,DQ,Victor Contreras,Mineral Wells,64.95,117.93,,,,Single-ply,SBD,M
Boys,74.84,DQ,Sean Argote,San Saba,67.31,156.49,92.99,,,Single-ply,SBD,M
Boys,67.13,DQ,Quentin Givens,North Crowley,62.41,,,,,Single-ply,SBD,M
Boys,74.84,1,Tri Hoang,Wichita Falls City View,72.39,226.8,97.52,272.16,596.47,Single-ply,SBD,M
Boys,74.84,2,Brennan Sooter,Ponder,74.21,235.87,122.47,206.38,564.72,Single-ply,SBD,M
Boys,74.84,3,Norman James,Wichita Falls City View,74.84,206.38,149.69,199.58,555.65,Single-ply,SBD,M
Boys,74.84,4,Leo Gonzales,Mineral Wells,74.21,199.58,127.01,195.04,521.63,Single-ply,SBD,M
Boys,74.84,5,Andrew Quintanna,Bangs,73.75,208.65,97.52,204.12,510.29,Single-ply,SBD,M
Boys,74.84,6,Victor Velazquez,Chico,74.84,192.78,104.33,213.19,510.29,Single-ply,SBD,M
Boys,74.84,7,Jake Gravell,Bangs,72.94,199.58,113.4,192.78,505.76,Single-ply,SBD,M
Boys,74.84,8,Devon Hoelscher,Ballinger,72.94,181.44,124.74,183.7,489.88,Single-ply,SBD,M
Boys,74.84,9,Randy Tucker,Perrin-Whitt,74.21,185.97,117.93,181.44,485.34,Single-ply,SBD,M
Boys,74.84,10,Brice Chaney,Whitesboro,73.21,176.9,102.06,201.85,480.81,Single-ply,SBD,M
Boys,82.1,11,Juan Lince,Hillsboro,75.07,183.7,102.06,185.97,471.74,Single-ply,SBD,M
Boys,74.84,12,Josh Zarazua,Waco University,74.03,172.37,115.67,179.17,467.2,Single-ply,SBD,M
Boys,74.84,13,Jerry Trejo,Brady,73.39,149.69,104.33,190.51,444.52,Single-ply,SBD,M
Boys,74.84,14,Daniel Sánchez,Rising Star,71.67,136.08,108.86,174.63,419.57,Single-ply,SBD,M
Boys,74.84,15,Ross Mullins,Olney,71.4,142.88,102.06,170.1,415.04,Single-ply,SBD,M
Boys,74.84,16,Kristian Martinez #2,Millsap,69.4,151.95,92.99,142.88,387.82,Single-ply,SBD,M
Boys,74.84,17,Morgan Smith #9,Tuscola Jim Ned,71.58,142.88,92.99,151.95,387.82,Single-ply,SBD,M
Boys,82.1,18,Clark Sulivant,Sadler S & S Cons,75.02,129.27,77.11,158.76,365.14,Single-ply,SBD,M
Boys,74.84,19,Jarron Sandoval,Brady,72.67,129.27,68.04,161.03,358.34,Single-ply,SBD,M
Boys,74.84,20,Blake Crawford,Sidney,68.49,104.33,56.7,122.47,283.5,Single-ply,SBD,M
Boys,74.84,DQ,Jon Thomas,Strawn,74.53,,,,,Single-ply,SBD,M
Boys,74.84,DQ,Colton Honea,Tuscola Jim Ned,69.85,,,,,Single-ply,SBD,M
Boys,74.84,DQ,Brandon Fortune,Alvarado,73.66,176.9,,,,Single-ply,SBD,M
Boys,74.84,DQ,John Geis,Brownwood,70.03,127.01,,,,Single-ply,SBD,M
Boys,74.84,DQ,Adam Boyer,Brady,73.3,,,,,Single-ply,SBD,M
Boys,74.84,DQ,Drew Newman,Mineral Wells,72.48,136.08,,,,Single-ply,SBD,M
Boys,74.84,DQ,Brandon Mercer,Jacksboro,74.21,,,,,Single-ply,SBD,M
Boys,74.84,DQ,Nick Marshall,North Crowley,74.84,,,,,Single-ply,SBD,M
Boys,74.84,DQ,Phillip Brewer #2,Iowa Park,71.94,,,,,Single-ply,SBD,M
Boys,74.84,DQ,Jose Lopez,Gustine,72.67,151.95,95.25,,,Single-ply,SBD,M
Boys,74.84,DQ,Eli Hatfiled,Electra,70.67,149.69,,,,Single-ply,SBD,M
Boys,74.84,DQ,Jesse Herd,Jacksboro,69.67,172.37,108.86,,,Single-ply,SBD,M
Boys,82.1,1,OShae Nolan,Wichita Falls City View,81.47,244.94,124.74,244.94,614.62,Single-ply,SBD,M
Boys,89.81,2,Josh Beckwith,Bangs,82.19,229.06,127.01,217.72,573.79,Single-ply,SBD,M
Boys,82.1,3,Nathan Cornett,Alvarado,81.65,208.65,142.88,213.19,564.72,Single-ply,SBD,M
Boys,82.1,4,Ramon Salazar,Jacksboro,80.74,233.6,127.01,201.85,562.45,Single-ply,SBD,M
Boys,82.1,5,Vontrell Grant,Cleburne,78.11,190.51,120.2,210.92,521.63,Single-ply,SBD,M
Boys,82.1,6,Chris Rogers,Burkburnett,80.74,206.38,106.59,201.85,514.83,Single-ply,SBD,M
Boys,82.1,7,Blaze Lynn,Electra,78.65,185.97,117.93,208.65,512.56,Single-ply,SBD,M
Boys,82.1,8,Travis Mallory,Mineral Wells,77.47,190.51,106.59,208.65,505.76,Single-ply,SBD,M
Boys,89.81,9,Desmond Allison,North Crowley,82.28,206.38,106.59,192.78,505.76,Single-ply,SBD,M
Boys,82.1,10,Bradly Martin,Brady,78.02,213.19,90.72,199.58,503.49,Single-ply,SBD,M
Boys,82.1,11,Luis Erives,Sadler S & S Cons,81.33,170.1,106.59,217.72,494.42,Single-ply,SBD,M
Boys,89.81,12,Kyle Young #3,Chico,82.28,188.24,106.59,192.78,487.61,Single-ply,SBD,M
Boys,82.1,13,Chris White,Gainesville,80.1,188.24,102.06,158.76,449.06,Single-ply,SBD,M
Boys,82.1,14,Brandon Reed,Rising Star,81.37,165.56,97.52,181.44,444.52,Single-ply,SBD,M
Boys,82.1,15,Anthony Ho,North Crowley,81.56,172.37,97.52,156.49,426.38,Single-ply,SBD,M
Boys,82.1,16,Israel Espinosa,Chico,79.29,158.76,95.25,167.83,421.84,Single-ply,SBD,M
Boys,82.1,17,Alex Montelongo,Gordon,80.2,158.76,95.25,158.76,412.77,Single-ply,SBD,M
Boys,82.1,18,Herik Bustamante,Rising Star,77.29,136.08,88.45,163.29,387.82,Single-ply,SBD,M
Boys,89.81,19,Adam Berryman,Gainesville,82.19,142.88,97.52,142.88,383.29,Single-ply,SBD,M
Boys,82.1,20,Jose Martinez,Rising Star,77.29,131.54,88.45,149.69,369.68,Single-ply,SBD,M
Boys,82.1,21,Dub Little,Strawn,81.28,122.47,72.57,167.83,362.87,Single-ply,SBD,M
Boys,82.1,22,Mackey Gibson,Brownwood,76.38,122.47,79.38,136.08,337.93,Single-ply,SBD,M
Boys,82.1,23,Waggoner Nors,Hillsboro,77.56,108.86,70.31,136.08,315.25,Single-ply,SBD,M
Boys,82.1,DQ,Tyler Coats,Electra,79.83,172.37,,,,Single-ply,SBD,M
Boys,82.1,DQ,Jonathon Jennings,Gordon,77.02,142.88,,,,Single-ply,SBD,M
Boys,82.1,DQ,Jackie Polk,Mineral Wells,78.11,,,,,Single-ply,SBD,M
Boys,82.1,DQ,Levi Cuevas,Cleburne,81.47,188.24,,,,Single-ply,SBD,M
Boys,82.1,DQ,Jacob Beckwith,Bangs,80.47,,,,,Single-ply,SBD,M
Boys,89.81,DQ,Hunter Gibson #2,Tuscola Jim Ned,82.33,,,,,Single-ply,SBD,M
Boys,89.81,1,Anthony Garcia,Wichita Falls City View,86.82,254.01,124.74,244.94,623.69,Single-ply,SBD,M
Boys,89.81,2,Christian Bosquez,Bangs,88.54,231.33,136.08,231.33,598.74,Single-ply,SBD,M
Boys,89.81,3,Zach Haler,Cleburne,84.46,229.06,142.88,199.58,571.53,Single-ply,SBD,M
Boys,89.81,4,Auggie Woodruff,Ballinger,89.18,226.8,140.61,172.37,539.77,Single-ply,SBD,M
Boys,99.79,5,Tyler Horne,Bridgeport,89.86,201.85,120.2,208.65,530.7,Single-ply,SBD,M
Boys,89.81,6,Eric Thomas,Ballinger,83.73,206.38,120.2,201.85,528.44,Single-ply,SBD,M
Boys,89.81,7,Reggie Austin,North Crowley,86.18,204.12,136.08,188.24,528.44,Single-ply,SBD,M
Boys,89.81,8,Jarrett Roper,Paradise,87.82,215.46,129.27,181.44,526.17,Single-ply,SBD,M
Boys,99.79,9,Angel Barrios,Coleman,89.95,195.04,149.69,176.9,521.63,Single-ply,SBD,M
Boys,89.81,10,Kirkland Weaver,Brady,89.72,226.8,97.52,195.04,519.36,Single-ply,SBD,M
Boys,89.81,11,Chris Dominquez,Sidney,84.1,195.04,129.27,188.24,512.56,Single-ply,SBD,M
Boys,89.81,12,Rudy Rodriguez,Dublin,87,190.51,115.67,206.38,512.56,Single-ply,SBD,M
Boys,89.81,13,Brandon Thompson,Jacksboro,86.73,185.97,111.13,208.65,505.76,Single-ply,SBD,M
Boys,89.81,14,Taylor Edwards,Paradise,83.46,195.04,113.4,190.51,498.95,Single-ply,SBD,M
Boys,89.81,15,Jose Avila,Brownwood,86.82,183.7,115.67,199.58,498.95,Single-ply,SBD,M
Boys,89.81,16,Eduardo Cruz Rubio,Hillsboro,84.46,204.12,102.06,190.51,496.68,Single-ply,SBD,M
Boys,89.81,17,Garrett Hamner,Tuscola Jim Ned,82.83,181.44,115.67,183.7,480.81,Single-ply,SBD,M
Boys,89.81,18,Bubba Johnson,Jacksboro,87.36,188.24,106.59,181.44,476.27,Single-ply,SBD,M
Boys,89.81,19,Eusebio Castillo,Brownwood,86.36,181.44,111.13,181.44,474,Single-ply,SBD,M
Boys,89.81,20,Mack Monsen,Brownwood,85.37,181.44,106.59,181.44,469.47,Single-ply,SBD,M
Boys,89.81,21,Alex Agnew,Rising Star,86.36,167.83,113.4,172.37,453.59,Single-ply,SBD,M
Boys,89.81,22,Robert Reeves,Brady,87.54,181.44,92.99,179.17,453.59,Single-ply,SBD,M
Boys,89.81,23,Abaco Fuentes,Bridgeport,87.45,181.44,92.99,147.42,421.84,Single-ply,SBD,M
Boys,89.81,24,Victor Hernandez #8,Strawn,86.73,156.49,79.38,181.44,417.3,Single-ply,SBD,M
Boys,89.81,25,Chase Dodson,Millsap,86.73,140.61,92.99,174.63,408.23,Single-ply,SBD,M
Boys,89.81,26,Cj Camarillo,Brady,87.91,151.95,90.72,145.15,387.82,Single-ply,SBD,M
Boys,99.79,27,Michael Livingston,Brownwood,89.99,140.61,68.04,154.22,362.87,Single-ply,SBD,M
Boys,89.81,28,Robbie Albert,Petrolia,84.01,136.08,77.11,136.08,349.27,Single-ply,SBD,M
Boys,89.81,29,Tristan Teplicek,Rising Star,82.46,127.01,72.57,117.93,317.51,Single-ply,SBD,M
Boys,89.81,DQ,Dawson Parrott,Olney,87.09,170.1,102.06,,,Single-ply,SBD,M
Boys,89.81,DQ,Tory Encltricht,Cleburne,89.72,199.58,,,,Single-ply,SBD,M
Boys,99.79,1,Charlie Thomas #3,Coleman,95.35,204.12,136.08,229.06,569.26,Single-ply,SBD,M
Boys,99.79,2,Jerry Taft,Godley,95.71,226.8,124.74,215.46,566.99,Single-ply,SBD,M
Boys,99.79,3,Justin Hoskinson,Bangs,97.16,222.26,129.27,204.12,555.65,Single-ply,SBD,M
Boys,99.79,4,Shelton Zarate,Coleman,99.7,215.46,140.61,195.04,551.11,Single-ply,SBD,M
Boys,99.79,5,Ej Lozado,Jacksboro,94.08,217.72,108.86,222.26,548.85,Single-ply,SBD,M
Boys,99.79,6,Jordan Carter,Paradise,90.26,210.92,113.4,190.51,514.83,Single-ply,SBD,M
Boys,99.79,7,Jaylen Brocknite,Brownwood,93.8,199.58,117.93,192.78,510.29,Single-ply,SBD,M
Boys,99.79,8,Brian Rogers,San Saba,99.34,190.51,120.2,199.58,510.29,Single-ply,SBD,M
Boys,99.79,9,Justin Silva,Wichita Falls City View,93.71,185.97,111.13,208.65,505.76,Single-ply,SBD,M
Boys,99.79,10,Devate Stredic,Brownwood,90.72,195.04,108.86,197.31,501.22,Single-ply,SBD,M
Boys,99.79,11,Stephen Plowman,Gordon,95.16,188.24,124.74,188.24,501.22,Single-ply,SBD,M
Boys,99.79,12,Zac Smurphat,Tuscola Jim Ned,90.9,183.7,106.59,181.44,471.74,Single-ply,SBD,M
Boys,99.79,13,Connor Vara,Brownwood,91.81,158.76,102.06,158.76,419.57,Single-ply,SBD,M
Boys,99.79,14,Christian Vargas,Brady,98.34,131.54,68.04,138.35,337.93,Single-ply,SBD,M
Boys,99.79,15,Luis Escamilla,Gustine,97.34,161.03,97.52,,258.55,Single-ply,SB,M
Boys,99.79,DQ,Patrick Walthers,Mineral Wells,90.72,142.88,74.84,,,Single-ply,SB,M
Boys,99.79,DQ,Jaime Hernandez #4,Brownwood,98.34,195.04,,,,Single-ply,SB,M
Boys,99.79,DQ,Jeramey Garcia,Burkburnett,99.52,201.85,,,,Single-ply,SB,M
Boys,99.79,DQ,Zach Baker #3,Petrolia,96.71,170.1,88.45,,,Single-ply,SB,M
Boys,99.79,DQ,La Villareal,Brady,91.72,,,,,Single-ply,SB,M
Boys,109.77,1,Aj Castillo,Alvarado,100.52,226.8,151.95,226.8,605.55,Single-ply,SBD,M
Boys,109.77,2,Michael McKinnerney,San Saba,109.04,222.26,138.35,238.14,598.74,Single-ply,SBD,M
Boys,109.77,3,Alfredo Librado,Hillsboro,109.41,235.87,145.15,195.04,576.06,Single-ply,SBD,M
Boys,109.77,4,David Whited,Wichita Falls City View,109.77,238.14,142.88,188.24,569.26,Single-ply,SBD,M
Boys,109.77,5,Matt Aguilar,Mineral Wells,105.69,224.53,129.27,204.12,557.92,Single-ply,SBD,M
Boys,124.74,6,Eber Hernandez,Sadler S & S Cons,109.91,208.65,131.54,215.46,555.65,Single-ply,SBD,M
Boys,109.77,7,Jose Gallegos,Ballinger,102.33,197.31,129.27,213.19,539.77,Single-ply,SBD,M
Boys,109.77,8,Austin Williamson,Jacksboro,102.69,204.12,138.35,192.78,535.24,Single-ply,SBD,M
Boys,109.77,9,Eric Zavala,Hillsboro,109.41,206.38,115.67,201.85,523.9,Single-ply,SBD,M
Boys,109.77,10,Nathan Amstead,San Saba,107.41,195.04,120.2,201.85,517.1,Single-ply,SBD,M
Boys,109.77,11,Edgar Mendietta,Hillsboro,108.86,201.85,115.67,195.04,512.56,Single-ply,SBD,M
Boys,109.77,12,Trevin Riel,Gainesville,104.78,199.58,113.4,174.63,487.61,Single-ply,SBD,M
Boys,109.77,13,Chris Aivaliotis,Ponder,105.69,199.58,108.86,174.63,483.08,Single-ply,SBD,M
Boys,109.77,14,Nicholas Wilkins,Brownwood,106.41,172.37,102.06,197.31,471.74,Single-ply,SBD,M
Boys,109.77,15,Ethan Lawson,Sadler S & S Cons,107.5,174.63,108.86,174.63,458.13,Single-ply,SBD,M
Boys,109.77,16,Allen Martinez,Jacksboro,109.23,172.37,108.86,167.83,449.06,Single-ply,SBD,M
Boys,109.77,DQ,Marcelino Tafolla,Mineral Wells,109.5,181.44,,,,Single-ply,SBD,M
Boys,109.77,DQ,Jannes Thornburg,Cleburne,106.96,242.67,,,,Single-ply,SBD,M
Boys,124.74,1,Kyle Parkinson,Cleburne,118.57,244.94,142.88,215.46,603.28,Single-ply,SBD,M
Boys,124.74+,2,Pedro Salvador,Hillsboro,124.92,229.06,163.29,206.38,598.74,Single-ply,SBD,M
Boys,124.74,3,Mathew Smith,Bridgeport,114.21,226.8,145.15,204.12,576.06,Single-ply,SBD,M
Boys,124.74,4,Ricky Clark,Burkburnett,120.11,238.14,133.81,197.31,569.26,Single-ply,SBD,M
Boys,124.74,5,Norlin Anderson,North Crowley,112.85,226.8,106.59,226.8,560.19,Single-ply,SBD,M
Boys,124.74,6,Fidel Olalde,Early,120.11,242.67,120.2,197.31,560.19,Single-ply,SBD,M
Boys,124.74,7,Blaz Hernandez,Bridgeport,121.11,219.99,163.29,176.9,560.19,Single-ply,SBD,M
Boys,124.74,8,Adam Stapleton,Whitesboro,110.4,210.92,142.88,199.58,553.38,Single-ply,SBD,M
Boys,124.74,9,Davion Ferguson,North Crowley,124.47,219.99,113.4,195.04,528.44,Single-ply,SBD,M
Boys,124.74,10,Caleb Wilbourn,Brownwood,116.66,195.04,122.47,197.31,514.83,Single-ply,SBD,M
Boys,124.74,11,Jacob McCloskey,Rising Star,113.58,204.12,124.74,158.76,487.61,Single-ply,SBD,M
Boys,124.74,12,Dusty Parum,San Saba,121.11,185.97,124.74,174.63,485.34,Single-ply,SBD,M
Boys,124.74,13,Jordan Boggs,Brady,111.31,170.1,102.06,158.76,430.91,Single-ply,SBD,M
Boys,124.74,14,Juan DeLuna,Hillsboro,116.39,149.69,106.59,167.83,424.11,Single-ply,SBD,M
Boys,124.74,15,David Garcia #13,Hillsboro,116.21,165.56,92.99,158.76,417.3,Single-ply,SBD,M
Boys,124.74,DQ,Derrian Johnson,North Crowley,116.21,281.23,,,,Single-ply,SBD,M
Boys,124.74,DQ,Michael Bonilla,Waco University,120.56,222.26,127.01,,,Single-ply,SBD,M
Boys,124.74+,1,Ben Hughes,Waco University,137.62,290.3,167.83,283.5,741.62,Single-ply,SBD,M
Boys,124.74+,2,Michael Williams,Dublin,130.54,238.14,161.03,238.14,637.3,Single-ply,SBD,M
Boys,124.74+,3,Eduardo Cassio,Cleburne,135.81,285.76,151.95,197.31,635.03,Single-ply,SBD,M
Boys,124.74+,4,Bryan Townsend,Whitesboro,125.01,256.28,156.49,204.12,616.89,Single-ply,SBD,M
Boys,124.74+,5,Zack Hetrick,Strawn,125.24,217.72,158.76,226.8,603.28,Single-ply,SBD,M
Boys,124.74+,6,Edgar Salvador,Hillsboro,142.61,238.14,145.15,215.46,598.74,Single-ply,SBD,M
Boys,124.74+,7,Dylan Hamilton,Godley,136.08,240.4,147.42,206.38,594.21,Single-ply,SBD,M
Boys,124.74+,8,Jt McGuire,Olney,139.71,208.65,136.08,219.99,564.72,Single-ply,SBD,M
Boys,124.74+,9,Matt Tucker,Jacksboro,125.19,229.06,120.2,192.78,542.04,Single-ply,SBD,M
Boys,124.74+,10,Conner Willis,Tuscola Jim Ned,128.82,215.46,117.93,204.12,537.51,Single-ply,SBD,M
Boys,124.74+,11,Robert Brown,North Crowley,149.23,226.8,113.4,190.51,530.7,Single-ply,SBD,M
Boys,124.74+,12,Jesse Wolfe,Gainesville,125.1,206.38,131.54,188.24,526.17,Single-ply,SBD,M
Boys,124.74+,13,Cody Skains,Brownwood,133.36,199.58,124.74,197.31,521.63,Single-ply,SBD,M
Boys,124.74+,14,Dempsey Dorris,Strawn,136.08,210.92,83.91,161.03,455.86,Single-ply,SBD,M
Boys,124.74+,15,Luke Miller #5,Paradise,138.25,181.44,97.52,156.49,435.45,Single-ply,SBD,M
Boys,124.74+,DQ,Jansen Fox,Rising Star,130.73,,,,,Single-ply,SBD,M
Boys,124.74+,DQ,Anthony Flores,Wichita Falls City View,140.8,,,,,Single-ply,SBD,M
Boys,124.74+,DQ,Bj Thompson,Gordon,132.9,174.63,,,,Single-ply,SBD,M
Boys,124.74+,DQ,Jeffrey Cooley,Jacksboro,133.08,,,,,Single-ply,SBD,M
