Division,WeightClassKg,Place,Name,Team,BodyweightKg,Best3SquatKg,Best3BenchKg,Best3DeadliftKg,TotalKg,Equipment,Event,Sex,BirthDate
Boys,51.71,1,Cruz Terrell,Beaumont West Brook,51.3,102.06,54.43,115.67,272.16,Single-ply,SBD,M,
Boys,51.71,2,Dray Renfrow,Bridge City,44.13,90.72,47.63,106.59,244.94,Single-ply,SBD,M,
Boys,55.79,1,Colten Gross,Bridge City,51.89,95.25,49.9,124.74,269.89,Single-ply,SBD,M,
Boys,55.79,2,Lane Gray,Deweyville,53.84,88.45,47.63,111.13,247.21,Single-ply,SBD,M,
Boys,59.87,1,Brady Bearden,Port Neches-Groves,59.78,183.7,127.01,183.7,494.42,Single-ply,SBD,M,
Boys,59.87,2,Elijah Curl,Deweyville,59.78,140.61,83.91,154.22,378.75,Single-ply,SBD,M,
Boys,67.13,1,Raymon Castaneda,Port Neches-Groves,61.42,158.76,102.06,165.56,426.38,Single-ply,SBD,M,
Boys,67.13,2,Aden Lapeyrolerie,Bridge City,65.77,154.22,88.45,147.42,390.09,Single-ply,SBD,M,
Boys,67.13,3,Hayden Mosley,Port Arthur Memorial,66.45,90.72,61.23,124.74,276.69,Single-ply,SBD,M,
Boys,74.84,1,Autrey Nichols,Port Neches-Groves,74.57,176.9,108.86,181.44,467.2,Single-ply,SBD,M,
Boys,74.84,2,Manuel Ogden,Port Neches-Groves,68.67,149.69,106.59,165.56,421.84,Single-ply,SBD,M,
Boys,74.84,3,Garrett Hicks,Port Neches-Groves,70.44,161.03,86.18,151.95,399.16,Single-ply,SBD,M,
Boys,74.84,4,Jared Harrell,Beaumont West Brook,73.16,142.88,92.99,163.29,399.16,Single-ply,SBD,M,
Boys,82.1,1,Eric Steil,Port Neches-Groves,80.2,235.87,117.93,215.46,569.26,Single-ply,SBD,M,
Boys,82.1,2,Zack Dommert,Bridge City,75.02,147.42,86.18,142.88,376.48,Single-ply,SBD,M,
Boys,82.1,3,Mikail Molley,Bridge City,77.79,142.88,65.77,136.08,344.73,Single-ply,SBD,M,
Boys,89.81,1,Nathan Parker,Deweyville,88.86,195.04,124.74,188.24,508.02,Single-ply,SBD,M,
Boys,89.81,2,Ryan Bland,Deweyville,89.81,181.44,104.33,195.04,480.81,Single-ply,SBD,M,
Boys,89.81,3,Marcus Smalls,Port Arthur Memorial,85.96,170.1,106.59,192.78,469.47,Single-ply,SBD,M,
Boys,89.81,4,Micah Curl,Deweyville,89.27,142.88,99.79,151.95,394.63,Single-ply,SBD,M,
Boys,89.81,DQ,Ryan Araujo #2,Port Neches-Groves,86.14,,,,,Single-ply,SBD,M,
Boys,99.79,1,Caden Pitre,Port Arthur Memorial,92.94,206.38,129.27,208.65,544.31,Single-ply,SBD,M,
Boys,99.79,2,Victor Ortiz,Bridge City,94.35,183.7,102.06,183.7,469.47,Single-ply,SBD,M,
Boys,99.79,3,Angel Becerra,Bridge City,98.88,183.7,106.59,158.76,449.06,Single-ply,SBD,M,
Boys,99.79,4,Kolbe Hughes,Deweyville,99.79,167.83,90.72,174.63,433.18,Single-ply,SBD,M,
Boys,109.77,1,Harvey Jones,Port Arthur Memorial,105.46,206.38,113.4,206.38,526.17,Single-ply,SBD,M,
Boys,109.77,2,Dj Landry,Bridge City,105.87,204.12,102.06,163.29,469.47,Single-ply,SBD,M,
Boys,109.77,DQ,Roshawn Calhoun,Port Arthur Memorial,106.91,,,,,Single-ply,SBD,M,
Boys,109.77,DQ,Jorge Herrera,Port Neches-Groves,105.73,,,,,Single-ply,SBD,M,
Boys,124.74,1,Luis Gonzalez,Deweyville,113.85,254.01,142.88,192.78,589.67,Single-ply,SBD,M,
Boys,124.74,2,Nicholas Lejeune,Bridge City,115.94,231.33,124.74,226.8,582.87,Single-ply,SBD,M,
Boys,124.74,DQ,Jahmal Rogers-Arvie,Port Arthur Memorial,117.8,192.78,104.33,,,Single-ply,SBD,M,
Boys,139.71,1,Arthur Hebert,Beaumont West Brook,127.6,263.08,158.76,197.31,619.15,Single-ply,SBD,M,
Boys,139.71+,1,Marcus Jefferson,Beaumont West Brook,147.64,204.12,115.67,204.12,523.9,Single-ply,SBD,M,
Boys,139.71+,2,Kevin Jackson,Beaumont West Brook,156.04,142.88,90.72,170.1,403.7,Single-ply,SBD,M,
Boys,,NS,Andre Carter,Beaumont West Brook,,,,,,Single-ply,SBD,M,
