Division,WeightClassKg,Place,Name,Team,BodyweightKg,Best3SquatKg,Best3BenchKg,Best3DeadliftKg,TotalKg,Equipment,Event,Sex,BirthDate
Boys,51.71,1,Aaron Hernandez,Conroe Grand Oaks,48.72,111.13,68.04,133.81,312.98,Single-ply,SBD,M,
Boys,51.71,2,Landon Arnold,Conroe The Woodlands,51.53,95.25,52.16,104.33,251.74,Single-ply,SBD,M,
Boys,51.71,3,Adam Poppinga,Conroe The Woodlands,50.17,77.11,36.29,86.18,199.58,Single-ply,SBD,M,
Boys,55.79,1,Damon Arnold,Conroe The Woodlands,52.84,124.74,90.72,149.69,365.14,Single-ply,SBD,M,
Boys,55.79,2,Aaron Lynch,Conroe Grand Oaks,55.79,106.59,63.5,117.93,288.03,Single-ply,SBD,M,
Boys,55.79,DQ,Rodrigo Benegas,Conroe,55.61,165.56,,,,Single-ply,SBD,M,
Boys,59.87,1,Hank Hewgley,Conroe The Woodlands,59.78,181.44,111.13,170.1,462.66,Single-ply,SBD,M,
Boys,59.87,2,Thineesha Weerasinghe,Conroe Grand Oaks,59.51,181.44,88.45,181.44,451.32,Single-ply,SBD,M,
Boys,59.87,3,Adrian Trejo,Conroe,59.87,142.88,90.72,163.29,396.89,Single-ply,SBD,M,
Boys,59.87,4,Jeremiah Salazar,Cleveland,58.92,145.15,81.65,156.49,383.29,Single-ply,SBD,M,
Boys,59.87,5,Lukas Alvarez,Conroe The Woodlands,56.2,120.2,68.04,158.76,347,Single-ply,SBD,M,
Boys,59.87,6,Landry Maturin,Montgomery Lake Creek,59.24,117.93,72.57,138.35,328.85,Single-ply,SBD,M,
Boys,59.87,7,Daniel Burgess,Conroe Woodlands College Park,59.1,111.13,70.31,138.35,319.78,Single-ply,SBD,M,
Boys,59.87,8,Ethan Gigliotta,Montgomery,58.65,113.4,63.5,115.67,292.57,Single-ply,SBD,M,
Boys,59.87,DQ,Gavin Martinez,College Station A&M Cons,58.65,,,,,Single-ply,SBD,M,
Boys,67.13,1,Rogelio Barrera,Conroe,66.77,235.87,129.27,235.87,601.01,Single-ply,SBD,M,
Boys,67.13,2,Andrew Veres,Conroe Woodlands College Park,66.72,190.51,117.93,192.78,501.22,Single-ply,SBD,M,
Boys,67.13,3,Jerry Contreras,Conroe The Woodlands,66.13,195.04,106.59,197.31,498.95,Single-ply,SBD,M,
Boys,67.13,4,Nate Provost,Conroe The Woodlands,66.22,192.78,90.72,197.31,480.81,Single-ply,SBD,M,
Boys,67.13,5,Cyle Hutcherson,Conroe,64.68,140.61,99.79,170.1,410.5,Single-ply,SBD,M,
Boys,67.13,6,Kyler Burden,Montgomery Lake Creek,65.14,131.54,92.99,145.15,369.68,Single-ply,SBD,M,
Boys,67.13,DQ,Alex Turner,Conroe The Woodlands,66.45,161.03,,,,Single-ply,SBD,M,
Boys,67.13,DQ,Daniel Gil,Conroe The Woodlands,67.13,242.67,145.15,,,Single-ply,SBD,M,
Boys,74.84,1,Mauricio Kerguelen,Conroe The Woodlands,74.07,235.87,136.08,201.85,573.79,Single-ply,SBD,M,
Boys,74.84,2,Tevian Jefferson,Conroe Oak Ridge,74.84,201.85,115.67,208.65,526.17,Single-ply,SBD,M,
Boys,74.84,3,Jesse Rodgers,Conroe Grand Oaks,74.8,192.78,124.74,199.58,517.1,Single-ply,SBD,M,
Boys,74.84,4,Drew Griffin,Conroe Grand Oaks,72.62,210.92,106.59,197.31,514.83,Single-ply,SBD,M,
Boys,74.84,5,Will Yeager,Conroe Grand Oaks,73.98,190.51,122.47,199.58,512.56,Single-ply,SBD,M,
Boys,74.84,6,Kalen Chometsky,Conroe The Woodlands,74.57,183.7,111.13,197.31,492.15,Single-ply,SBD,M,
Boys,74.84,7,Andy Gonzalez,Cleveland,74.8,161.03,97.52,167.83,426.38,Single-ply,SBD,M,
Boys,74.84,8,Juan Turiso,Houston Eisenhower,67.95,147.42,90.72,154.22,392.36,Single-ply,SBD,M,
Boys,74.84,DQ,Colton Olsen,Conroe Oak Ridge,74.16,,,,,Single-ply,SBD,M,
Boys,82.1,1,Cody Kelley,Montgomery Lake Creek,81.6,240.4,147.42,213.19,601.01,Single-ply,SBD,M,
Boys,82.1,2,Matthew Martin,College Station A&M Cons,75.57,231.33,147.42,208.65,587.4,Single-ply,SBD,M,
Boys,82.1,3,Adrian Scott,Montgomery,81.87,226.8,129.27,183.7,539.77,Single-ply,SBD,M,
Boys,82.1,4,Riley Stewart,Conroe,81.24,201.85,124.74,206.38,532.97,Single-ply,SBD,M,
Boys,82.1,5,Nicolas Alfaro,Conroe Woodlands College Park,77.29,183.7,122.47,197.31,503.49,Single-ply,SBD,M,
Boys,82.1,6,Alexis Cortes,Cleveland,80.56,165.56,124.74,172.37,462.66,Single-ply,SBD,M,
Boys,82.1,7,Kingsley Osili,Montgomery Lake Creek,80.88,115.67,70.31,120.2,306.17,Single-ply,SBD,M,
Boys,82.1,8,Andrew Faulkner,Conroe The Woodlands,80.65,111.13,65.77,122.47,299.37,Single-ply,SBD,M,
Boys,82.1,DQ,Hector Gonzalez,Conroe,81.83,,,,,Single-ply,SBD,M,
Boys,89.81,1,Brock Slaydon,College Station A&M Cons,84.5,294.84,167.83,244.94,707.6,Single-ply,SBD,M,
Boys,89.81,2,Andrew Larkworthy,Conroe The Woodlands,88.54,235.87,172.37,244.94,653.17,Single-ply,SBD,M,
Boys,89.81,3,Gabriel Trujillo,Conroe Oak Ridge,89.58,233.6,131.54,226.8,591.94,Single-ply,SBD,M,
Boys,89.81,4,Andrew Tran,Montgomery,85.64,215.46,147.42,226.8,589.67,Single-ply,SBD,M,
Boys,89.81,5,Matthew Bolden,College Station A&M Cons,88.09,254.01,140.61,190.51,585.13,Single-ply,SBD,M,
Boys,89.81,6,Jameer Martin,Cleveland,84.59,215.46,129.27,219.99,564.72,Single-ply,SBD,M,
Boys,89.81,7,Shannon Richardson,Conroe,89.72,192.78,136.08,229.06,557.92,Single-ply,SBD,M,
Boys,89.81,8,Ryan Smith,Conroe,89.36,188.24,161.03,183.7,532.97,Single-ply,SBD,M,
Boys,89.81,9,Connor Ritter,Conroe Woodlands College Park,88.22,185.97,154.22,174.63,514.83,Single-ply,SBD,M,
Boys,89.81,10,Kendrae Lewis,Cleveland,85.5,199.58,113.4,185.97,498.95,Single-ply,SBD,M,
Boys,89.81,11,Darius Turner,College Station A&M Cons,88.5,197.31,108.86,174.63,480.81,Single-ply,SBD,M,
Boys,89.81,12,Wilson Woodruff,Conroe The Woodlands,89.27,185.97,102.06,183.7,471.74,Single-ply,SBD,M,
Boys,89.81,13,Dominic Armour,Montgomery Lake Creek,87.68,145.15,111.13,183.7,439.98,Single-ply,SBD,M,
Boys,89.81,14,Dylan Medina,Montgomery Lake Creek,83.28,165.56,106.59,165.56,437.72,Single-ply,SBD,M,
Boys,89.81,15,Jack Currie,Montgomery Lake Creek,89.36,170.1,74.84,170.1,415.04,Single-ply,SBD,M,
Boys,89.81,16,Kyler Mason,Montgomery,86.36,142.88,92.99,165.56,401.43,Single-ply,SBD,M,
Boys,89.81,17,Jemal Small,Houston Eisenhower,83.73,104.33,83.91,158.76,347,Single-ply,SBD,M,
Boys,89.81,DQ,Patrick Farris,Houston Eisenhower,83.96,,,,,Single-ply,SBD,M,
Boys,99.79,1,David May,College Station A&M Cons,91.72,303.91,147.42,249.48,700.8,Single-ply,SBD,M,
Boys,99.79,2,Myles Terry,Conroe Oak Ridge,99.7,242.67,174.63,254.01,671.32,Single-ply,SBD,M,
Boys,99.79,3,Alex Martin,Conroe The Woodlands,98.29,274.42,156.49,238.14,669.05,Single-ply,SBD,M,
Boys,99.79,4,Cayden Clayton,Conroe The Woodlands,94.44,249.48,145.15,231.33,625.96,Single-ply,SBD,M,
Boys,99.79,5,Jakob Handy,Conroe The Woodlands,93.85,242.67,113.4,238.14,594.21,Single-ply,SBD,M,
Boys,99.79,6,Virgil Pace,Montgomery Lake Creek,99.02,222.26,136.08,217.72,576.06,Single-ply,SBD,M,
Boys,99.79,7,Nate Klie,Conroe The Woodlands,95.71,217.72,115.67,192.78,526.17,Single-ply,SBD,M,
Boys,99.79,8,Joshual Jack,Cleveland,96.39,183.7,111.13,217.72,512.56,Single-ply,SBD,M,
Boys,99.79,9,Reece Findley,Montgomery Lake Creek,97.57,188.24,106.59,213.19,508.02,Single-ply,SBD,M,
Boys,99.79,DQ,Ethan Tompkins,Montgomery Lake Creek,99.79,199.58,,,,Single-ply,SBD,M,
Boys,109.77,1,Payton Korolyk,Conroe Grand Oaks,109.5,283.5,188.24,272.16,743.89,Single-ply,SBD,M,
Boys,109.77,2,Perry Irchirl,Conroe Woodlands College Park,107.68,247.21,149.69,283.5,680.39,Single-ply,SBD,M,
Boys,109.77,3,Jacob Pitzer,Conroe,109.5,260.82,158.76,242.67,662.24,Single-ply,SBD,M,
Boys,109.77,4,Klayton Sheffield,College Station A&M Cons,101.2,254.01,172.37,226.8,653.17,Single-ply,SBD,M,
Boys,109.77,5,Cesar Martínez,Bryan,106.37,242.67,154.22,242.67,639.57,Single-ply,SBD,M,
Boys,109.77,6,Brian Lester,Bryan,109.23,260.82,147.42,219.99,628.23,Single-ply,SBD,M,
Boys,109.77,7,Cooper Hydock,Montgomery,108.18,233.6,136.08,240.4,610.08,Single-ply,SBD,M,
Boys,109.77,8,Cameron Hall,Conroe Woodlands College Park,104.19,213.19,136.08,206.38,555.65,Single-ply,SBD,M,
Boys,109.77,9,Vance Virgilio,Conroe Oak Ridge,108.73,204.12,117.93,183.7,505.76,Single-ply,SBD,M,
Boys,109.77,10,Chivez Edwards,Montgomery,105.23,204.12,113.4,183.7,501.22,Single-ply,SBD,M,
Boys,109.77,11,Peyton Robinson,Conroe Woodlands College Park,107.82,199.58,115.67,174.63,489.88,Single-ply,SBD,M,
Boys,109.77,12,Diego Martinez,Cleveland,103.1,145.15,92.99,151.95,390.09,Single-ply,SBD,M,
Boys,109.77,13,Patricio Alvarez,Houston Eisenhower,108.09,136.08,90.72,158.76,385.55,Single-ply,SBD,M,
Boys,109.77,DQ,Sebastian Duarte,Conroe The Woodlands,108.54,272.16,170.1,,,Single-ply,SBD,M,
Boys,109.77,DQ,Blayne Lusk,Montgomery Lake Creek,108.23,161.03,,,,Single-ply,SBD,M,
Boys,124.74,1,William Yang,Conroe Grand Oaks,122.15,308.44,165.56,249.48,723.48,Single-ply,SBD,M,
Boys,124.74,2,Cobe Williams,Conroe Woodlands College Park,122.29,254.01,176.9,242.67,673.58,Single-ply,SBD,M,
Boys,124.74,3,Aiden Garris,Conroe Oak Ridge,120.38,274.42,163.29,229.06,666.78,Single-ply,SBD,M,
Boys,124.74,4,Leighton Mann,Montgomery Lake Creek,119.57,249.48,147.42,240.4,637.3,Single-ply,SBD,M,
Boys,124.74,5,Aiden Kaplan,Montgomery Lake Creek,115.39,204.12,136.08,210.92,551.11,Single-ply,SBD,M,
Boys,124.74,6,Alex Fisher,Conroe Woodlands College Park,113.26,192.78,131.54,204.12,528.44,Single-ply,SBD,M,
Boys,124.74,7,Zach Shilu,Conroe The Woodlands,118.71,204.12,111.13,199.58,514.83,Single-ply,SBD,M,
Boys,124.74,8,David Sorto,Cleveland,111.77,147.42,117.93,190.51,455.86,Single-ply,SBD,M,
Boys,124.74,DQ,Marque Johnson,Conroe,116.26,260.82,,,,Single-ply,SBD,M,
Boys,124.74,DQ,Aaron Pereyra,Conroe Grand Oaks,121.11,229.06,120.2,,,Single-ply,SBD,M,
Boys,139.71,1,Joseph Lightfoot,College Station A&M Cons,132.77,317.51,167.83,258.55,743.89,Single-ply,SBD,M,
Boys,139.71,2,Aj Belser,Conroe Grand Oaks,135.81,267.62,179.17,240.4,687.19,Single-ply,SBD,M,
Boys,139.71,3,Austin Pennington,Bryan,125.78,260.82,154.22,249.48,664.51,Single-ply,SBD,M,
Boys,139.71,4,Chris Rodriguez,Cleveland,130,231.33,176.9,217.72,625.96,Single-ply,SBD,M,
Boys,139.71,5,Justin Snively,Montgomery,128.82,233.6,149.69,233.6,616.89,Single-ply,SBD,M,
Boys,139.71,6,Chance Jackson,Conroe Woodlands College Park,130.04,217.72,188.24,210.92,616.89,Single-ply,SBD,M,
Boys,139.71,7,Ayden Heckendorn,Montgomery Lake Creek,127.5,215.46,163.29,226.8,605.55,Single-ply,SBD,M,
Boys,139.71,8,Jayden Cortez,College Station A&M Cons,125.46,226.8,140.61,204.12,571.53,Single-ply,SBD,M,
Boys,139.71,9,Luis Gonzalez,Cleveland,128.09,208.65,127.01,201.85,537.51,Single-ply,SBD,M,
Boys,139.71,10,John Cox,Conroe Woodlands College Park,135.08,201.85,124.74,170.1,496.68,Single-ply,SBD,M,
Boys,139.71+,1,Tavion Byars,Montgomery Lake Creek,168.6,317.51,149.69,249.48,716.68,Single-ply,SBD,M,
Boys,139.71+,2,Damarcus Wilridge,Conroe,150.09,238.14,163.29,247.21,648.64,Single-ply,SBD,M,
Boys,139.71+,3,Timothy Chandler,College Station A&M Cons,140.61,249.48,140.61,195.04,585.13,Single-ply,SBD,M,
Boys,139.71+,4,Christian King,Conroe Oak Ridge,153,256.28,124.74,195.04,576.06,Single-ply,SBD,M,
Boys,139.71+,5,Levi Zaunbrecher,Conroe The Woodlands,142.56,185.97,102.06,165.56,453.59,Single-ply,SBD,M,
Boys,139.71+,6,Michael Bane,Conroe Woodlands College Park,145.29,133.81,74.84,142.88,351.53,Single-ply,SBD,M,
