Division,WeightClassKg,Place,Name,Team,BodyweightKg,Best3SquatKg,Best3BenchKg,Best3DeadliftKg,TotalKg,Equipment,Event,Sex,BirthDate
Boys,59.87,1,Francisco Villarreal,Laredo Nixon,59.78,192.78,122.47,195.04,510.29,Single-ply,SBD,M,
Boys,59.87,2,Nolan Raya,Laredo United South,59.87,201.85,104.33,197.31,503.49,Single-ply,SBD,M,
Boys,67.13,1,Miguel Terrazas,Laredo Nixon,65.68,183.7,102.06,151.95,437.72,Single-ply,SBD,M,
Boys,74.84,1,Jose De Los Santos,Laredo United,72.48,161.03,97.52,156.49,415.04,Single-ply,SBD,M,
Boys,82.1,1,Diego Hernandez,Laredo Cigarroa,80.47,208.65,106.59,192.78,508.02,Single-ply,SBD,M,
Boys,82.1,2,Brandon Reyes,Laredo United,80.38,151.95,61.23,158.76,371.95,Single-ply,SBD,M,
Boys,89.81,1,Alexis Gonzalez,Laredo Nixon,88.9,219.99,108.86,208.65,537.51,Single-ply,SBD,M,
Boys,89.81,2,Nicholas Gutierrez,Laredo United,85.82,147.42,83.91,149.69,381.02,Single-ply,SBD,M,
Boys,89.81,DQ,Benito Sanchez,Laredo United South,86.82,219.99,147.42,,,Single-ply,SBD,M,
Boys,99.79,1,Gael Soto,Laredo United,99.16,249.48,170.1,197.31,616.89,Single-ply,SBD,M,
Boys,99.79,2,Andres Torres,Laredo United,98.07,210.92,142.88,201.85,555.65,Single-ply,SBD,M,
Boys,99.79,3,Aguilar Jesus,Laredo Cigarroa,93.62,172.37,113.4,172.37,458.13,Single-ply,SBD,M,
Boys,99.79,4,David Garza,Laredo Cigarroa,97.98,151.95,72.57,174.63,399.16,Single-ply,SBD,M,
Boys,99.79,5,Sean Priego,Laredo Nixon,94.08,138.35,92.99,156.49,387.82,Single-ply,SBD,M,
Boys,99.79,DQ,Luis Franco,Laredo United,98.97,158.76,92.99,,,Single-ply,SBD,M,
Boys,109.77,1,Joey Garza,Laredo Nixon,106.05,256.28,124.74,210.92,591.94,Single-ply,SBD,M,
Boys,109.77,2,Elezar Guerra,Laredo United South,108.14,238.14,142.88,183.7,564.72,Single-ply,SBD,M,
Boys,109.77,3,Andres Rodriguez,Laredo Nixon,107.05,204.12,113.4,219.99,537.51,Single-ply,SBD,M,
Boys,124.74,1,Chris Castro,Laredo Nixon,118.02,260.82,127.01,235.87,623.69,Single-ply,SBD,M,
Boys,124.74,2,Marcos Rodriguez,Laredo United South,116.48,249.48,142.88,208.65,601.01,Single-ply,SBD,M,
Boys,124.74,3,Sean Guevara,Laredo Nixon,119.93,206.38,154.22,188.24,548.85,Single-ply,SBD,M,
Boys,124.74,DQ,Angel Rios,Laredo United South,113.13,240.4,147.42,,,Single-ply,SBD,M,
Boys,139.71+,1,Manny Torres,Laredo Cigarroa,149.96,283.5,165.56,224.53,673.58,Single-ply,SBD,M,
Boys,139.71+,2,Georgie Rangel,Laredo Cigarroa,144.51,204.12,147.42,199.58,551.11,Single-ply,SBD,M,
