Division,WeightClassKg,Place,Name,Team,BodyweightKg,Best3SquatKg,Best3BenchKg,Best3DeadliftKg,TotalKg,Equipment,Event,Sex
Boys,51.71,1,Cesar Ledesma,Burleson,46.72,120.2,72.57,154.22,347,Single-ply,SBD,M
Boys,51.71,2,David Cook,Burleson Centennial,50.71,122.47,77.11,147.42,347,Single-ply,SBD,M
Boys,51.71,3,Sergio Huertas,Georgetown,47.99,124.74,63.5,122.47,310.71,Single-ply,SBD,M
Boys,51.71,4,Andres Guerra,Manor,51.07,111.13,65.77,129.27,306.17,Single-ply,SBD,M
Boys,51.71,5,Will Solomon,Bastrop Cedar Creek,49.17,117.93,68.04,117.93,303.91,Single-ply,SBD,M
Boys,51.71,6,Max Castelli,Belton,51.07,106.59,63.5,129.27,299.37,Single-ply,SBD,M
Boys,51.71,7,Josh Lambert #3,Burleson Centennial,50.62,111.13,56.7,108.86,276.69,Single-ply,SBD,M
Boys,51.71,DQ,Nick Sanchez,Georgetown,49.44,138.35,,,,Single-ply,SBD,M
Boys,55.79,1,Jason Jones #8,Burleson,55.7,181.44,99.79,204.12,485.34,Single-ply,SBD,M
Boys,55.79,2,Rushi Patel,College Station,54.98,170.1,88.45,172.37,430.91,Single-ply,SBD,M
Boys,55.79,3,Michael Guerrero,Georgetown East View,54.16,165.56,92.99,154.22,412.77,Single-ply,SBD,M
Boys,55.79,4,Juan Sanchez #4,Waco,53.98,151.95,83.91,174.63,410.5,Single-ply,SBD,M
Boys,55.79,5,Therrance Soto,San Marcos,55.43,145.15,79.38,176.9,401.43,Single-ply,SBD,M
Boys,55.79,6,Jacob Hanson,College Station A&M; Cons,54.98,154.22,92.99,151.95,399.16,Single-ply,SBD,M
Boys,55.79,7,Ethan Ford,Burleson Centennial,55.61,122.47,70.31,181.44,374.21,Single-ply,SBD,M
Boys,55.79,8,Avery Rodriguez #3,Temple,55.07,136.08,77.11,156.49,369.68,Single-ply,SBD,M
Boys,55.79,9,Xavier McCarter,Copperas Cove,54.16,138.35,81.65,140.61,360.61,Single-ply,SBD,M
Boys,55.79,10,Dylan Quintero,Burleson Centennial,53.98,111.13,58.97,156.49,326.59,Single-ply,SBD,M
Boys,55.79,11,Faison Stroop,Waco University,54.98,113.4,70.31,142.88,326.59,Single-ply,SBD,M
Boys,55.79,DQ,Christan Lopez,Manor,55.61,,,,,Single-ply,SBD,M
Boys,59.87,1,Leonardo Calderon,San Marcos,58.69,215.46,129.27,176.9,521.63,Single-ply,SBD,M
Boys,59.87,2,Nathaniel Burnett,Lockhart,58.33,167.83,102.06,185.97,455.86,Single-ply,SBD,M
Boys,59.87,3,Tyler Robinson,Burleson,58.79,163.29,83.91,192.78,439.98,Single-ply,SBD,M
Boys,59.87,4,Jacob Moss,Burleson,58.06,158.76,90.72,167.83,417.3,Single-ply,SBD,M
Boys,59.87,5,Hunter Ford,Burleson Centennial,59.51,151.95,90.72,174.63,417.3,Single-ply,SBD,M
Boys,59.87,6,Johnny Mata,Hutto,58.33,131.54,74.84,172.37,378.75,Single-ply,SBD,M
Boys,59.87,7,Michael Marullo,Georgetown East View,59.24,147.42,95.25,136.08,378.75,Single-ply,SBD,M
Boys,59.87,8,Daniel Santana,San Marcos,59.33,136.08,79.38,156.49,371.95,Single-ply,SBD,M
Boys,59.87,9,Dakota Tidwell,Burleson,59.78,131.54,77.11,151.95,360.61,Single-ply,SBD,M
Boys,59.87,10,Zyle Nance,Dripping Springs,58.79,122.47,65.77,154.22,342.46,Single-ply,SBD,M
Boys,59.87,DQ,Jajuan Singleton,Elgin,59.78,,,,,Single-ply,SBD,M
Boys,59.87,DQ,Cameron Saucedo,Kyle Lehman,57.88,165.56,,,,Single-ply,SBD,M
Boys,67.13,1,Anthony Perez,Killeen Shoemaker,65.5,247.21,149.69,224.53,621.42,Single-ply,SBD,M
Boys,67.13,2,Ethan Haynes,Burleson,66.04,204.12,113.4,217.72,535.24,Single-ply,SBD,M
Boys,67.13,3,JT Abshire,College Station,65.86,215.46,106.59,210.92,532.97,Single-ply,SBD,M
Boys,67.13,4,Dwight Roberts,Temple,63.87,174.63,117.93,208.65,501.22,Single-ply,SBD,M
Boys,67.13,5,Happy Jones,Manor,66.68,201.85,97.52,183.7,483.08,Single-ply,SBD,M
Boys,67.13,6,Brendan Hunt,Belton,65.59,188.24,92.99,183.7,464.93,Single-ply,SBD,M
Boys,67.13,7,Trestan Hudnall,Killeen Ellison,63.5,158.76,102.06,197.31,458.13,Single-ply,SBD,M
Boys,67.13,8,Matthew Reiff,Pflugerville,65.68,170.1,102.06,183.7,455.86,Single-ply,SBD,M
Boys,67.13,DQ,Josh Tiha,Manor,67.04,,,,,Single-ply,SBD,M
Boys,67.13,DQ,Julian Mata,Kyle Lehman,64.5,,,,,Single-ply,SBD,M
Boys,67.13,DQ,Jeremiah Manley,Bryan Rudder,65.23,,,,,Single-ply,SBD,M
Boys,67.13,DQ,Frank Williams,College Station A&M; Cons,65.5,,,,,Single-ply,SBD,M
Boys,74.84,1,Braden Tschirhart,College Station,73.66,233.6,151.95,208.65,594.21,Single-ply,SBD,M
Boys,74.84,2,Issac Johnson,Elgin,72.21,226.8,113.4,238.14,578.33,Single-ply,SBD,M
Boys,74.84,3,Joseph Lopez #5,Kyle Lehman,74.03,206.38,122.47,233.6,562.45,Single-ply,SBD,M
Boys,74.84,4,Kevin Cervantes,Elgin,74.3,201.85,138.35,215.46,555.65,Single-ply,SBD,M
Boys,74.84,5,Dequarius White,Bryan Rudder,72.67,192.78,127.01,217.72,537.51,Single-ply,SBD,M
Boys,74.84,6,Zaye Petit,Copperas Cove,69.13,197.31,113.4,213.19,523.9,Single-ply,SBD,M
Boys,74.84,7,Eduardo Perez,Georgetown,73.12,213.19,102.06,195.04,510.29,Single-ply,SBD,M
Boys,74.84,8,Tyheme Isabel,Waco,70.76,199.58,106.59,190.51,496.68,Single-ply,SBD,M
Boys,74.84,9,Jc Mueller,Burleson,74.48,181.44,106.59,185.97,474,Single-ply,SBD,M
Boys,74.84,DQ,Mark Vavra,Bryan,74.84,,,,,Single-ply,SBD,M
Boys,74.84,DQ,Craig Dawson,Waco Midway,70.31,,,,,Single-ply,SBD,M
Boys,74.84,DQ,Kyleland Sauls,Temple,72.48,192.78,115.67,,,Single-ply,SBD,M
Boys,82.1,1,Omar Essix,Waco,79.38,256.28,129.27,272.16,657.71,Single-ply,SBD,M
Boys,82.1,2,Matt Hemphill,Dripping Springs,81.19,249.48,154.22,231.33,635.03,Single-ply,SBD,M
Boys,82.1,3,Robert Franklin,College Station A&M; Cons,81.37,235.87,154.22,235.87,625.96,Single-ply,SBD,M
Boys,82.1,4,Jacob Lewallen,Belton,79.29,247.21,122.47,242.67,612.35,Single-ply,SBD,M
Boys,82.1,5,Trevor Williams,College Station A&M; Cons,79.29,235.87,136.08,213.19,585.13,Single-ply,SBD,M
Boys,82.1,6,Greg Rivera,Lockhart,80.2,208.65,131.54,242.67,582.87,Single-ply,SBD,M
Boys,82.1,7,Campbell Masteller,Burleson,80.92,226.8,140.61,208.65,576.06,Single-ply,SBD,M
Boys,82.1,8,Alexander Myles,Copperas Cove,82.01,206.38,133.81,231.33,571.53,Single-ply,SBD,M
Boys,82.1,9,Brek Galbreath,Joshua,82.01,210.92,136.08,222.26,569.26,Single-ply,SBD,M
Boys,82.1,10,Devin Norman,Lockhart,77.93,208.65,140.61,215.46,564.72,Single-ply,SBD,M
Boys,82.1,11,Hunter Cunningham,Burleson,79.83,208.65,117.93,210.92,537.51,Single-ply,SBD,M
Boys,82.1,DQ,Nathan Bryson,Kyle Lehman,80.01,,,,,Single-ply,SBD,M
Boys,89.81,1,Nathan Ellard,College Station,86.36,272.16,165.56,217.72,655.44,Single-ply,SBD,M
Boys,89.81,2,Jason Jasperson,College Station A&M; Cons,88.54,244.94,147.42,247.21,639.57,Single-ply,SBD,M
Boys,89.81,3,Prudy Calderon,San Marcos,84.46,235.87,131.54,267.62,635.03,Single-ply,SBD,M
Boys,89.81,4,Garrett Parkhill,Burleson Centennial,88.36,254.01,140.61,240.4,635.03,Single-ply,SBD,M
Boys,89.81,5,Dwain Richie,Waco,88.99,240.4,131.54,240.4,612.35,Single-ply,SBD,M
Boys,89.81,6,Ben Wolz,College Station,88.27,240.4,131.54,226.8,598.74,Single-ply,SBD,M
Boys,89.81,7,Mark Wagner,College Station,88.63,226.8,131.54,226.8,585.13,Single-ply,SBD,M
Boys,89.81,8,Gelico Green,Waco,88,215.46,124.74,229.06,569.26,Single-ply,SBD,M
Boys,89.81,9,Rene Velasquez,San Marcos,85.82,215.46,138.35,188.24,542.04,Single-ply,SBD,M
Boys,89.81,10,Sukhman Singh,Granbury,89.27,210.92,111.13,192.78,514.83,Single-ply,SBD,M
Boys,89.81,DQ,Ryan Leal,Buda Hays,85.37,260.82,,,,Single-ply,SBD,M
Boys,89.81,DQ,Olisa Uzuegbunam,Manor,89.81,,,,,Single-ply,SBD,M
Boys,89.81,DQ,Tre Moreno,Kyle Lehman,85.91,195.04,,,,Single-ply,SBD,M
Boys,89.81,DQ,Josh Ewald,Kyle Lehman,86.82,204.12,,,,Single-ply,SBD,M
Boys,99.79,1,Paul Sanchez,Hutto,96.16,294.84,149.69,274.42,718.94,Single-ply,SBD,M
Boys,99.79,2,Jerry Leyba,Belton,97.34,272.16,165.56,258.55,696.26,Single-ply,SBD,M
Boys,99.79,3,Abel Longoria,Kyle Lehman,98.97,281.23,167.83,240.4,689.46,Single-ply,SBD,M
Boys,99.79,4,Rick Reyes,Buda Hays,90.72,263.08,158.76,240.4,662.24,Single-ply,SBD,M
Boys,99.79,5,Blake Edgington,Joshua,97.43,260.82,140.61,260.82,662.24,Single-ply,SBD,M
Boys,99.79,6,Reid Bacon,Austin Lake Travis,96.34,249.48,156.49,238.14,644.1,Single-ply,SBD,M
Boys,99.79,7,Hayden Lewis,Burleson,97.79,233.6,161.03,240.4,635.03,Single-ply,SBD,M
Boys,99.79,8,DeVarion Guyton,College Station A&M; Cons,96.16,226.8,149.69,249.48,625.96,Single-ply,SBD,M
Boys,99.79,9,Jason Umanzor,Granbury,96.8,238.14,142.88,233.6,614.62,Single-ply,SBD,M
Boys,99.79,10,Davis Wood,College Station,95.89,226.8,145.15,213.19,585.13,Single-ply,SBD,M
Boys,99.79,11,Jazerian Faulkner,Temple,98.61,201.85,136.08,215.46,553.38,Single-ply,SBD,M
Boys,99.79,DQ,Ochaun Mathis,Manor,97.89,208.65,,,,Single-ply,SBD,M
Boys,109.77,1,Jose Hernandez #5,San Marcos,106.78,317.51,176.9,278.96,773.37,Single-ply,SBD,M
Boys,109.77,2,Brayden Mercer,Burleson,107.23,278.96,199.58,267.62,746.16,Single-ply,SBD,M
Boys,109.77,3,Thomas Godi,Burleson Centennial,106.41,272.16,176.9,247.21,696.26,Single-ply,SBD,M
Boys,109.77,4,Arturo Jaimes,Belton,104.6,265.35,145.15,274.42,684.92,Single-ply,SBD,M
Boys,109.77,5,Clifford Chambers,Bryan Rudder,108.32,310.71,158.76,215.46,684.92,Single-ply,SBD,M
Boys,109.77,6,Hunter Bohanan,Georgetown,107.95,272.16,161.03,226.8,659.98,Single-ply,SBD,M
Boys,109.77,7,Carnealus Manning,Waco,105.96,254.01,149.69,240.4,644.1,Single-ply,SBD,M
Boys,109.77,8,Jordan Mauntel,Burleson,108.68,229.06,149.69,256.28,635.03,Single-ply,SBD,M
Boys,109.77,9,Ramsey Tijerina,San Marcos,107.5,249.48,151.95,231.33,632.76,Single-ply,SBD,M
Boys,109.77,10,Bailey Mullins,Burleson,106.14,231.33,136.08,247.21,614.62,Single-ply,SBD,M
Boys,109.77,11,Matthew Herrera,Austin Lake Travis,102.6,256.28,145.15,210.92,612.35,Single-ply,SBD,M
Boys,109.77,DQ,Raul Sandoval,Granbury,107.59,,,,,Single-ply,SBD,M
Boys,124.74,1,Javon Chambers,Belton,121.2,331.12,176.9,235.87,743.89,Single-ply,SBD,M
Boys,124.74,2,Roman Ruiz,Lockhart,122.56,290.3,176.9,272.16,739.36,Single-ply,SBD,M
Boys,124.74,3,Tyler Noles,Georgetown,115.39,294.84,174.63,249.48,718.94,Single-ply,SBD,M
Boys,124.74,4,Jaterrius Pleasant,Burleson,115.03,260.82,156.49,285.76,703.07,Single-ply,SBD,M
Boys,124.74,5,Justin Hoffman,Bastrop,123.83,269.89,190.51,242.67,703.07,Single-ply,SBD,M
Boys,124.74,6,Richard Cuellar,Cleburne,124.74,306.17,163.29,206.38,675.85,Single-ply,SBD,M
Boys,124.74,7,Kevondre Black,Waco,118.39,285.76,151.95,217.72,655.44,Single-ply,SBD,M
Boys,124.74,8,Tyrese Beasley,Waco,118.66,260.82,158.76,226.8,646.37,Single-ply,SBD,M
Boys,124.74,9,Dylan Sillero,San Marcos,114.94,274.42,136.08,229.06,639.57,Single-ply,SBD,M
Boys,124.74,10,Ethan Garcia,Kyle Lehman,115.12,254.01,140.61,226.8,621.42,Single-ply,SBD,M
Boys,124.74,DQ,Curtavis Norman,Waco,113.04,242.67,,,,Single-ply,SBD,M
Boys,124.74,DQ,Eliel Salazar,Elgin,115.58,,,,,Single-ply,SBD,M
Boys,124.74+,1,Dominic Pastucci,Pflugerville Hendrickson,136.53,276.69,192.78,269.89,739.36,Single-ply,SBD,M
Boys,124.74+,2,Domenic Valdespino,Pflugerville Hendrickson,143.7,288.03,174.63,267.62,730.28,Single-ply,SBD,M
Boys,124.74+,3,Marquis Gardner,Manor,154.58,317.51,181.44,226.8,725.75,Single-ply,SBD,M
Boys,124.74+,4,Fernando Sanchez,Granbury,143.79,281.23,151.95,249.48,682.66,Single-ply,SBD,M
Boys,124.74+,5,La'Daidreain Glasker,Waco,135.71,249.48,154.22,251.74,655.44,Single-ply,SBD,M
Boys,124.74+,6,Brian Prickett,Kyle Lehman,128.46,267.62,147.42,235.87,650.91,Single-ply,SBD,M
Boys,124.74+,7,Jeremy Wills,Lockhart,190.51,283.5,183.7,183.7,650.91,Single-ply,SBD,M
Boys,124.74+,8,Ty Roaches,Kyle Lehman,125.92,267.62,154.22,226.8,648.64,Single-ply,SBD,M
Boys,124.74+,9,Phillip Haskins,Temple,129.64,260.82,154.22,226.8,641.83,Single-ply,SBD,M
Boys,124.74+,DQ,Keith Jackson II,Killeen Ellison,162.11,,,,,Single-ply,SBD,M
Boys,124.74+,DQ,Carlos Morales,Kyle Lehman,139.8,,,,,Single-ply,SBD,M
Boys,124.74+,DQ,Chase Travis,Georgetown,130.36,,,,,Single-ply,SBD,M
