Place,Name,State,WeightClassKg,BodyweightKg,BirthDate,Age,Squat1Kg,Squat2Kg,Squat3Kg,Best3SquatKg,Bench1Kg,Bench2Kg,Bench3Kg,Best3BenchKg,Deadlift1Kg,Deadlift2Kg,Deadlift3Kg,Best3DeadliftKg,TotalKg,Squat4Kg,Bench4Kg,Deadlift4Kg,Event,Equipment,Sex,Division,Tested
1,Heather Grimes,AL,52,51.4,,21,105,-115,117.5,117.5,55,60,-65,60,135,-142.5,142.5,142.5,320,,,,SBD,Raw,F,Juniors 20-23,Yes
1,Bronte Ray,AL,67.5,63.5,,22,115,120,127.5,127.5,57.5,60,62.5,62.5,135,142.5,147.5,147.5,337.5,,,155,SBD,Raw,F,Juniors 20-23,Yes
1,Heather Grimes,AL,52,51.4,,21,105,-115,117.5,117.5,55,60,-65,60,135,-142.5,142.5,142.5,320,,,,SBD,Raw,F,Open,Yes
1,Sabrena Mitchell,AL,56,55.2,,24,77.5,85,92.5,92.5,42.5,-47.5,47.5,47.5,77.5,82.5,-87.5,82.5,222.5,,,,SBD,Raw,F,Open,Yes
1,Amberly Kuhlmann,AL,60,59.4,,37,122.5,130,-137.5,130,65,67.5,70,70,-155,-165,165,165,365,,,,SBD,Raw,F,Open,Yes
2,Holly Fisher,AL,60,59.7,,27,70,82.5,92.5,92.5,27.5,37.5,45,45,85,97.5,107.5,107.5,245,,,,SBD,Raw,F,Open,Yes
1,Bronte Ray,AL,67.5,63.5,,22,115,120,127.5,127.5,57.5,60,62.5,62.5,135,142.5,147.5,147.5,337.5,,,155,SBD,Raw,F,Open,Yes
1,Beatrice Wade Holloway,GA,75,72.5,,40,85,97.5,105,105,-50,55,60,60,137.5,150,,150,315,112.5,,,SBD,Raw,F,Open,Yes
2,Schyler Arnold,AL,75,74.5,,28,85,95,-100,95,57.5,-62.5,-62.5,57.5,102.5,112.5,-120,112.5,265,,,,SBD,Raw,F,Open,Yes
1,Bethany Gamble,AL,82.5,80.5,,39,107.5,112.5,117.5,117.5,67.5,70,72.5,72.5,137.5,145,147.5,147.5,337.5,,,,SBD,Raw,F,Open,Yes
1,Gabriela Mcneill,AL,100,98.8,,34,85,100,110,110,45,50,-57.5,50,92.5,105,120,120,280,,,,SBD,Raw,F,Open,Yes
DQ,Elizabeth Baird,AL,100,99.1,,40,-147.5,-147.5,-147.5,,85,90,92.5,92.5,160,165,-182.5,165,,,,,SBD,Raw,F,Open,Yes
1,Amberly Kuhlmann,AL,60,59.4,,37,122.5,130,-137.5,130,65,67.5,70,70,-155,-165,165,165,365,,,,SBD,Raw,F,Submasters 35-39,Yes
1,Bethany Gamble,AL,82.5,80.5,,39,107.5,112.5,117.5,117.5,67.5,70,72.5,72.5,137.5,145,147.5,147.5,337.5,,,,SBD,Raw,F,Submasters 35-39,Yes
1,Terri Smith,AL,60,59.8,,40,52.5,-55,-55,52.5,-42.5,42.5,45,45,77.5,80,82.5,82.5,180,,,,SBD,Raw,F,Masters 40-44,Yes
1,Beatrice Wade Holloway,GA,75,72.5,,40,85,97.5,105,105,-50,55,60,60,137.5,150,,150,315,112.5,,,SBD,Raw,F,Masters 40-44,Yes
1,Michelle Hall,AL,110+,139.7,,52,57.5,62.5,-67.5,62.5,47.5,-50,50,50,102.5,110,115,115,227.5,,,,SBD,Raw,F,Masters 50-54,Yes
1,Connor Hwang,AL,60,58.7,,15,97.5,-105,110,110,57.5,62.5,65,65,-117.5,122.5,132.5,132.5,307.5,,,,SBD,Raw,M,Juniors 13-15,Yes
1,Mason Faulkner,AL,67.5,67,,16,-132.5,-132.5,132.5,132.5,70,77.5,-82.5,77.5,155,160,167.5,167.5,377.5,,,,SBD,Raw,M,Juniors 16-17,Yes
2,Branson Boler,AL,67.5,66.3,,16,110,120,122.5,122.5,72.5,85,-92.5,85,130,142.5,145,145,352.5,,,,SBD,Raw,M,Juniors 16-17,Yes
1,Jeffery Varnon,AL,67.5,67.3,,21,142.5,165,172.5,172.5,97.5,105,-110,105,227.5,242.5,-250,242.5,520,,,,SBD,Raw,M,Juniors 20-23,Yes
1,Seth Mcconnell,AL,75,72.7,,15,107.5,115,122.5,122.5,70,77.5,82.5,82.5,107.5,122.5,137.5,137.5,342.5,,,,SBD,Raw,M,Juniors 13-15,Yes
1,Stratton Rutherford,AL,75,70.7,,16,142.5,-150,152.5,152.5,87.5,92.5,95,95,167.5,177.5,182.5,182.5,430,,,,SBD,Raw,M,Juniors 16-17,Yes
1,Bryce Byrd,AL,82.5,79.3,,14,107.5,-120,-137.5,107.5,52.5,60,-67.5,60,102.5,110,120,120,287.5,,,,SBD,Raw,M,Juniors 13-15,Yes
1,Jason Mcspadden,AL,82.5,81.9,,19,187.5,197.5,205,205,115,122.5,-127.5,122.5,197.5,210,220,220,547.5,,,,SBD,Raw,M,Juniors 18-19,Yes
1,Connor Guida,AL,90,82.9,,14,137.5,157.5,170,170,85,97.5,102.5,102.5,147.5,165,187.5,187.5,460,,,,SBD,Raw,M,Juniors 13-15,Yes
1,Luke Ciccola,AL,90,87.5,,19,-197.5,197.5,215,215,112.5,120,127.5,127.5,215,230,-240,230,572.5,,,,SBD,Raw,M,Juniors 18-19,Yes
1,Lane Kurpes,AL,100,98.1,,16,-147.5,147.5,192.5,192.5,-100,115,-122.5,115,192.5,-227.5,227.5,227.5,535,,,,SBD,Raw,M,Juniors 16-17,Yes
1,Zachary Griffin,MS,100,100,,18,190,200,205,205,115,-122.5,-122.5,115,217.5,227.5,237.5,237.5,557.5,,,,SBD,Raw,M,Juniors 18-19,Yes
1,Austin Turner #1,AL,100,98.8,,20,160,167.5,177.5,177.5,97.5,102.5,-110,102.5,205,212.5,-222.5,212.5,492.5,,,,SBD,Raw,M,Juniors 20-23,Yes
1,Lance Pickett,AL,125,124.7,,23,-265,265,-277.5,265,170,-182.5,-182.5,170,230,255,265,265,700,,,,SBD,Raw,M,Juniors 20-23,Yes
2,Curtis Stephens,AL,125,113.3,,21,215,232.5,-245,232.5,110,-120,120,120,235,-242.5,-242.5,235,587.5,,,,SBD,Raw,M,Juniors 20-23,Yes
1,Charles Wagar,AL,140,138.1,,15,160,167.5,175,175,-85,85,95,95,165,175,185,185,455,182.5,,192.5,SBD,Raw,M,Juniors 13-15,Yes
1,Jeffery Varnon,AL,67.5,67.3,,21,142.5,165,172.5,172.5,97.5,105,-110,105,227.5,242.5,-250,242.5,520,,,,SBD,Raw,M,Open,Yes
1,Jason Haas-Christian,AL,75,73.9,,36,185,195,202.5,202.5,120,125,130,130,230,242.5,252.5,252.5,585,,,,SBD,Raw,M,Open,Yes
1,Ryan Kuhlmann,AL,82.5,78.2,,36,195,207.5,215,215,117.5,125,130,130,245,262.5,272.5,272.5,617.5,,,,SBD,Raw,M,Open,Yes
1,Johnathan Tentoni,MS,90,89.5,,31,237.5,250,-257.5,250,165,172.5,-175,172.5,305,317.5,-322.5,317.5,740,,,,SBD,Raw,M,Open,Yes
2,Benjamin Chambers,AL,90,90,,29,205,217.5,-227.5,217.5,127.5,132.5,-137.5,132.5,242.5,252.5,-260,252.5,602.5,,,,SBD,Raw,M,Open,Yes
3,Danny Huynh,LA,90,88.9,,23,190,205,,205,112.5,122.5,130,130,240,252.5,257.5,257.5,592.5,,,,SBD,Raw,M,Open,Yes
4,Henry Van Haneghan,AL,90,88.8,,23,200,215,230,230,110,117.5,130,130,195,205,222.5,222.5,582.5,,,,SBD,Raw,M,Open,Yes
5,Luke Ciccola,AL,90,87.5,,19,-197.5,197.5,215,215,112.5,120,127.5,127.5,215,230,-240,230,572.5,,,,SBD,Raw,M,Open,Yes
1,Ronald Tarvin,AL,100,98.3,,32,-295,295,-318,295,190,200,-205,200,285,302.5,315,315,810,,,,SBD,Raw,M,Open,Yes
2,Garret Holland,AL,100,99.5,,28,240,250,260,260,145,152.5,-155,152.5,300,-317.5,-322.5,300,712.5,,,,SBD,Raw,M,Open,Yes
3,Alex Brooks,AL,100,98.1,,30,240,250,-262.5,250,162.5,167.5,-175,167.5,250,262.5,265,265,682.5,,,,SBD,Raw,M,Open,Yes
4,Holden Mitchell,AL,100,92.8,,26,190,202.5,212.5,212.5,115,122.5,130,130,217.5,232.5,247.5,247.5,590,,,,SBD,Raw,M,Open,Yes
1,Jeff Ray,AL,110,102.7,,55,227.5,237.5,-251,237.5,155,160,-165,160,265,277.5,285,285,682.5,,,,SBD,Raw,M,Open,Yes
2,Bryant Wood,AL,110,106.6,,29,207.5,220,227.5,227.5,152.5,162.5,170,170,262.5,275,285,285,682.5,,,,SBD,Raw,M,Open,Yes
3,Dabney Dickenson,AL,110,108.6,,24,165,175,182.5,182.5,85,90,-92.5,90,195,212.5,227.5,227.5,500,,,,SBD,Raw,M,Open,Yes
DQ,Ryan Griepenstroh,AL,110,109.5,,38,-197.5,,,,135,145,-147.5,145,,,,,,,,,SBD,Raw,M,Open,Yes
1,Dillan Montgomery,AL,125,122.4,,27,220,235,242.5,242.5,140,150,155,155,245,262.5,272.5,272.5,670,,,,SBD,Raw,M,Open,Yes
2,Troy Reed,MS,125,113,,31,220,225,232.5,232.5,152.5,157.5,165,165,247.5,257.5,270,270,667.5,,,,SBD,Raw,M,Open,Yes
1,Charles Wagar,AL,140,138.1,,15,160,167.5,175,175,-85,85,95,95,165,175,185,185,455,182.5,,192.5,SBD,Raw,M,Open,Yes
1,Jason Haas-Christian,AL,75,73.9,,36,185,195,202.5,202.5,120,125,130,130,230,242.5,252.5,252.5,585,,,,SBD,Raw,M,Submasters 35-39,Yes
1,Ryan Kuhlmann,AL,82.5,78.2,,36,195,207.5,215,215,117.5,125,130,130,245,262.5,272.5,272.5,617.5,,,,SBD,Raw,M,Submasters 35-39,Yes
DQ,Ryan Griepenstroh,AL,110,109.5,,38,-197.5,,,,135,145,-147.5,145,,,,,,,,,SBD,Raw,M,Submasters 35-39,Yes
1,Jeff Ray,AL,110,102.7,,55,227.5,237.5,-251,237.5,155,160,-165,160,265,277.5,285,285,682.5,,,,SBD,Raw,M,Masters 55-59,Yes
1,Jeremy Mcconnell,AL,140,132.9,,40,170,190,-200,190,112.5,120,-125,120,210,225,240,240,550,,,,SBD,Raw,M,Masters 40-44,Yes
1,Melissa McLain,AL,82.5,79.5,,41,60,62.5,67.5,67.5,27.5,32.5,-37.5,32.5,75,87.5,92.5,92.5,192.5,,,,SBD,Wraps,F,Masters 40-44,Yes
1,Will Bishop,AL,125,111.8,,16,-220,227.5,240,240,142.5,-157.5,,142.5,175,195,210,210,592.5,,,220,SBD,Wraps,M,Juniors 16-17,Yes
1,Bobby Brown,AL,100,92,,40,130,170,177.5,177.5,107.5,147.5,155,155,167.5,190,195,195,527.5,182.5,161,200,SBD,Wraps,M,Open,Yes
1,Jessie Lindsey,AL,90,87.6,,42,187.5,202.5,217.5,217.5,125,137.5,-145,137.5,200,215,230,230,585,,,,SBD,Wraps,M,Masters 40-44,Yes
1,Bobby Brown,AL,100,92,,40,130,170,177.5,177.5,107.5,147.5,155,155,167.5,190,195,195,527.5,182.5,161,200,SBD,Wraps,M,Masters 40-44,Yes
1,Ken Jones #1,AL,100,99.9,,65,150,-177.5,,150,90,,,90,180,208,,208,448,,,,SBD,Single-ply,M,Masters 65-69,Yes
1,Schyler Arnold,AL,75,74.5,,28,,,,,57.5,-62.5,-62.5,57.5,,,,,57.5,,,,B,Raw,F,Open,Yes
1,Carolyn Chambers,AL,110+,113.1,,27,,,,,75,80,-85,80,,,,,80,,,,B,Raw,F,Open,Yes
1,Beatrice Wade Holloway,GA,75,72.5,,40,,,,,-50,55,60,60,,,,,60,,,,B,Raw,F,Masters 40-44,Yes
1,Bobby Brown,AL,100,92,,40,,,,,107.5,147.5,155,155,,,,,155,,161,,B,Raw,M,Open,Yes
2,Dustin Gamblin #2,AL,100,96.9,,33,,,,,145,147.5,150,150,,,,,150,,,,B,Raw,M,Open,Yes
1,Ellis Brown,GA,125,121.9,,30,,,,,-175,185,-187.5,185,,,,,185,,,,B,Raw,M,Open,Yes
1,Ryan Kuhlmann,AL,82.5,78.2,,36,,,,,117.5,125,130,130,,,,,130,,,,B,Raw,M,Submasters 35-39,Yes
1,Bobby Brown,AL,100,92,,40,,,,,107.5,147.5,155,155,,,,,155,,161,,B,Raw,M,Masters 40-44,Yes
1,Ken Jones #1,AL,100,99.9,,65,,,,,90,,,90,,,,,90,,,,B,Single-ply,M,Masters 65-69,Yes
1,Holly Fisher,AL,60,59.7,,27,,,,,,,,,85,97.5,107.5,107.5,107.5,,,,D,Raw,F,Open,Yes
1,Chelsea Hampton,LA,110+,148.3,,28,,,,,,,,,167.5,-175,-185,167.5,167.5,,,,D,Raw,F,Open,Yes
1,Amberly Kuhlmann,AL,60,59.4,,37,,,,,,,,,-155,-165,165,165,165,,,,D,Raw,F,Submasters 35-39,Yes
1,Beatrice Wade Holloway,GA,75,72.5,,40,,,,,,,,,137.5,150,,150,150,,,,D,Raw,F,Masters 40-44,Yes
1,Jeffery Varnon,AL,67.5,67.3,,21,,,,,,,,,227.5,242.5,-250,242.5,242.5,,,,D,Raw,M,Juniors 20-23,Yes
G,Carson Holt,,82.5,78.9,,12,,,,,,,,,62.5,70,82.5,82.5,82.5,,,,D,Raw,M,Youth,Yes
1,Anthony Nestasie,FL,100,92.1,,35,,,,,,,,,220,235,237.5,237.5,237.5,,,,D,Raw,M,Open,Yes
2,Dustin Gamblin #2,AL,100,96.9,,33,,,,,,,,,222.5,227.5,230,230,230,,,,D,Raw,M,Open,Yes
1,Ryan Kuhlmann,AL,82.5,78.2,,36,,,,,,,,,245,262.5,272.5,272.5,272.5,,,,D,Raw,M,Submasters 35-39,Yes
1,Anthony Nestasie,FL,100,92.1,,35,,,,,,,,,220,235,237.5,237.5,237.5,,,,D,Raw,M,Submasters 35-39,Yes
1,Jeff Ray,AL,110,102.7,,55,,,,,,,,,265,277.5,285,285,285,,,,D,Raw,M,Masters 55-59,Yes
1,Ken Jones #1,AL,100,99.9,,65,,,,,,,,,180,208,,208,208,,,,D,Single-ply,M,Masters 65-69,Yes
