Division,WeightClassKg,Place,Name,Team,BodyweightKg,Best3SquatKg,Best3BenchKg,Best3DeadliftKg,TotalKg,Equipment,Event,Sex,BirthDate
Boys,51.71,1,Tre Ortega,Bishop,51.71,136.08,61.23,136.08,333.39,Single-ply,SBD,M,
Boys,51.71,DQ,Diego Guzman,Bishop,50.53,77.11,,,,Single-ply,SBD,M,
Boys,55.79,1,John Ryan Dimicali,Bishop,55.79,131.54,77.11,158.76,367.41,Single-ply,SBD,M,
Boys,59.87,1,Andrew Gonzalez,Kingsville King,58.88,147.42,90.72,156.49,394.63,Single-ply,SBD,M,
Boys,59.87,2,Teo Pelagio,Bishop,59.51,138.35,81.65,151.95,371.95,Single-ply,SBD,M,
Boys,67.13,1,Juan Castillo,Bishop,66.36,165.56,120.2,192.78,478.54,Single-ply,SBD,M,
Boys,74.84,1,Damien Jimenez,Bishop,74.84,226.8,111.13,188.24,526.17,Single-ply,SBD,M,
Boys,82.1,1,Jesse Alaniz,Kingsville King,80.74,240.4,158.76,235.87,635.03,Single-ply,SBD,M,
Boys,82.1,DQ,Kohl Garcia,Bishop,78.2,174.63,97.52,,,Single-ply,SBD,M,
Boys,89.81,1,Jayden Silguero,Kingsville King,87.36,181.44,111.13,183.7,476.27,Single-ply,SBD,M,
Boys,99.79,1,Noah Jasso,Bishop,93.35,231.33,122.47,201.85,555.65,Single-ply,SBD,M,
Boys,99.79,2,Jose Silguero,Kingsville King,94.98,163.29,83.91,158.76,405.97,Single-ply,SBD,M,
Boys,109.77,1,Gabriel Garza,Kingsville King,101.33,195.04,92.99,172.37,460.4,Single-ply,SBD,M,
Boys,139.71,1,Tiger Perez,Kingsville King,125.46,224.53,154.22,217.72,596.47,Single-ply,SBD,M,
Boys,139.71+,1,Tomas Amaya,Kingsville King,211.1,204.12,113.4,149.69,467.2,Single-ply,SBD,M,
